#
#
#
2048
#
#
#
   1 3.7207229e+26 6.1773924e+02 1.2919860e+19
   2 3.7755314e+26 6.2683912e+02 1.3139570e+19
   3 3.8311472e+26 6.3607305e+02 1.3363025e+19
   4 3.8875823e+26 6.4544301e+02 1.3590287e+19
   5 3.9448487e+26 6.5495100e+02 1.3821421e+19
   6 4.0029587e+26 6.6459905e+02 1.4056495e+19
   7 4.0619247e+26 6.7438922e+02 1.4295575e+19
   8 4.1217593e+26 6.8432362e+02 1.4538730e+19
   9 4.1824753e+26 6.9440436e+02 1.4786029e+19
  10 4.2440857e+26 7.0463359e+02 1.5037543e+19
  11 4.3066036e+26 7.1501352e+02 1.5293345e+19
  12 4.3700424e+26 7.2554635e+02 1.5553507e+19
  13 4.4344158e+26 7.3623434e+02 1.5818103e+19
  14 4.4997374e+26 7.4707978e+02 1.6087211e+19
  15 4.5660212e+26 7.5808498e+02 1.6360906e+19
  16 4.6332815e+26 7.6925229e+02 1.6639267e+19
  17 4.7015325e+26 7.8058412e+02 1.6922374e+19
  18 4.7707889e+26 7.9208287e+02 1.7210308e+19
  19 4.8410655e+26 8.0375101e+02 1.7503152e+19
  20 4.9123773e+26 8.1559103e+02 1.7800989e+19
  21 4.9847395e+26 8.2760547e+02 1.8103904e+19
  22 5.0581677e+26 8.3979690e+02 1.8411986e+19
  23 5.1326776e+26 8.5216791e+02 1.8725321e+19
  24 5.2082850e+26 8.6472117e+02 1.9044000e+19
  25 5.2850062e+26 8.7745935e+02 1.9368114e+19
  26 5.3628575e+26 8.9038517e+02 1.9697755e+19
  27 5.4418556e+26 9.0350140e+02 2.0033020e+19
  28 5.5220174e+26 9.1681085e+02 2.0374002e+19
  29 5.6033600e+26 9.3031636e+02 2.0720802e+19
  30 5.6859009e+26 9.4402082e+02 2.1073517e+19
  31 5.7696576e+26 9.5792716e+02 2.1432248e+19
  32 5.8546481e+26 9.7203836e+02 2.1797100e+19
  33 5.9408906e+26 9.8635743e+02 2.2168177e+19
  34 6.0284035e+26 1.0008874e+03 2.2545584e+19
  35 6.1172055e+26 1.0156315e+03 2.2929431e+19
  36 6.2073156e+26 1.0305927e+03 2.3319827e+19
  37 6.2987531e+26 1.0457744e+03 2.3716884e+19
  38 6.3915375e+26 1.0611796e+03 2.4120717e+19
  39 6.4856887e+26 1.0768118e+03 2.4531441e+19
  40 6.5812268e+26 1.0926743e+03 2.4949175e+19
  41 6.6781722e+26 1.1087705e+03 2.5374037e+19
  42 6.7765457e+26 1.1251038e+03 2.5806151e+19
  43 6.8763683e+26 1.1416776e+03 2.6245640e+19
  44 6.9776613e+26 1.1584957e+03 2.6692630e+19
  45 7.0804465e+26 1.1755615e+03 2.7147249e+19
  46 7.1847457e+26 1.1928786e+03 2.7609629e+19
  47 7.2905813e+26 1.2104509e+03 2.8079902e+19
  48 7.3979759e+26 1.2282820e+03 2.8558203e+19
  49 7.5069526e+26 1.2463758e+03 2.9044670e+19
  50 7.6175345e+26 1.2647362e+03 2.9539442e+19
  51 7.7297453e+26 1.2833670e+03 3.0042662e+19
  52 7.8436091e+26 1.3022723e+03 3.0554473e+19
  53 7.9591502e+26 1.3214560e+03 3.1075024e+19
  54 8.0763933e+26 1.3409224e+03 3.1604463e+19
  55 8.1953634e+26 1.3606755e+03 3.2142944e+19
  56 8.3160860e+26 1.3807196e+03 3.2690620e+19
  57 8.4385870e+26 1.4010590e+03 3.3247649e+19
  58 8.5628924e+26 1.4216979e+03 3.3814191e+19
  59 8.6890289e+26 1.4426410e+03 3.4390410e+19
  60 8.8170236e+26 1.4638925e+03 3.4976470e+19
  61 8.9469036e+26 1.4854571e+03 3.5572541e+19
  62 9.0786969e+26 1.5073394e+03 3.6178794e+19
  63 9.2124315e+26 1.5295440e+03 3.6795403e+19
  64 9.3481362e+26 1.5520757e+03 3.7422546e+19
  65 9.4858398e+26 1.5749393e+03 3.8060403e+19
  66 9.6255719e+26 1.5981397e+03 3.8709157e+19
  67 9.7673624e+26 1.6216819e+03 3.9368996e+19
  68 9.9112415e+26 1.6455709e+03 4.0040109e+19
  69 1.0057240e+27 1.6698118e+03 4.0722689e+19
  70 1.0205389e+27 1.6944098e+03 4.1416933e+19
  71 1.0355721e+27 1.7193702e+03 4.2123040e+19
  72 1.0508267e+27 1.7446983e+03 4.2841214e+19
  73 1.0663060e+27 1.7703994e+03 4.3571662e+19
  74 1.0820133e+27 1.7964792e+03 4.4314594e+19
  75 1.0979520e+27 1.8229431e+03 4.5070224e+19
  76 1.1141255e+27 1.8497969e+03 4.5838769e+19
  77 1.1305372e+27 1.8770463e+03 4.6620451e+19
  78 1.1471907e+27 1.9046971e+03 4.7415495e+19
  79 1.1640895e+27 1.9327552e+03 4.8224131e+19
  80 1.1812373e+27 1.9612266e+03 4.9046590e+19
  81 1.1986376e+27 1.9901175e+03 4.9883110e+19
  82 1.2162943e+27 2.0194340e+03 5.0733933e+19
  83 1.2342110e+27 2.0491823e+03 5.1599302e+19
  84 1.2523917e+27 2.0793688e+03 5.2479469e+19
  85 1.2708402e+27 2.1100000e+03 5.3374685e+19
  86 1.2895604e+27 2.1410825e+03 5.4285211e+19
  87 1.3085564e+27 2.1726228e+03 5.5211307e+19
  88 1.3278322e+27 2.2046278e+03 5.6153241e+19
  89 1.3473920e+27 2.2371042e+03 5.7111285e+19
  90 1.3672399e+27 2.2700590e+03 5.8085714e+19
  91 1.3873801e+27 2.3034993e+03 5.9076811e+19
  92 1.4078171e+27 2.3374322e+03 6.0084860e+19
  93 1.4285551e+27 2.3718650e+03 6.1110153e+19
  94 1.4495986e+27 2.4068050e+03 6.2152986e+19
  95 1.4709520e+27 2.4422597e+03 6.3213659e+19
  96 1.4926200e+27 2.4782367e+03 6.4292478e+19
  97 1.5146072e+27 2.5147437e+03 6.5389754e+19
  98 1.5369183e+27 2.5517884e+03 6.6505806e+19
  99 1.5595580e+27 2.5893789e+03 6.7640953e+19
 100 1.5825312e+27 2.6275231e+03 6.8795525e+19
 101 1.6058429e+27 2.6662292e+03 6.9969855e+19
 102 1.6294979e+27 2.7055056e+03 7.1164281e+19
 103 1.6535014e+27 2.7453605e+03 7.2379149e+19
 104 1.6778584e+27 2.7858025e+03 7.3614809e+19
 105 1.7025743e+27 2.8268402e+03 7.4871619e+19
 106 1.7276543e+27 2.8684825e+03 7.6149940e+19
 107 1.7531036e+27 2.9107382e+03 7.7450144e+19
 108 1.7789279e+27 2.9536164e+03 7.8772605e+19
 109 1.8051326e+27 2.9971263e+03 8.0117705e+19
 110 1.8317233e+27 3.0412771e+03 8.1485833e+19
 111 1.8587056e+27 3.0860783e+03 8.2877384e+19
 112 1.8860855e+27 3.1315394e+03 8.4292762e+19
 113 1.9138687e+27 3.1776703e+03 8.5732374e+19
 114 1.9420611e+27 3.2244807e+03 8.7196637e+19
 115 1.9706688e+27 3.2719807e+03 8.8685974e+19
 116 1.9996980e+27 3.3201804e+03 9.0200817e+19
 117 2.0291547e+27 3.3690901e+03 9.1741602e+19
 118 2.0590454e+27 3.4187203e+03 9.3308777e+19
 119 2.0893764e+27 3.4690817e+03 9.4902793e+19
 120 2.1201541e+27 3.5201849e+03 9.6524112e+19
 121 2.1513853e+27 3.5720409e+03 9.8173204e+19
 122 2.1830765e+27 3.6246609e+03 9.9850545e+19
 123 2.2152345e+27 3.6780560e+03 1.0155662e+20
 124 2.2478662e+27 3.7322376e+03 1.0329192e+20
 125 2.2809786e+27 3.7872174e+03 1.0505696e+20
 126 2.3145788e+27 3.8430071e+03 1.0685224e+20
 127 2.3486740e+27 3.8996187e+03 1.0867827e+20
 128 2.3832713e+27 3.9570642e+03 1.1053560e+20
 129 2.4183784e+27 4.0153560e+03 1.1242476e+20
 130 2.4540025e+27 4.0745064e+03 1.1434629e+20
 131 2.4901515e+27 4.1345283e+03 1.1630075e+20
 132 2.5268329e+27 4.1954343e+03 1.1828871e+20
 133 2.5640546e+27 4.2572375e+03 1.2031074e+20
 134 2.6018247e+27 4.3199511e+03 1.2236743e+20
 135 2.6401512e+27 4.3835886e+03 1.2445938e+20
 136 2.6790422e+27 4.4481636e+03 1.2658718e+20
 137 2.7185061e+27 4.5136898e+03 1.2875147e+20
 138 2.7585513e+27 4.5801813e+03 1.3095286e+20
 139 2.7991864e+27 4.6476523e+03 1.3319200e+20
 140 2.8404201e+27 4.7161172e+03 1.3546952e+20
 141 2.8822612e+27 4.7855907e+03 1.3778610e+20
 142 2.9247186e+27 4.8560876e+03 1.4014241e+20
 143 2.9678015e+27 4.9276230e+03 1.4253912e+20
 144 3.0115190e+27 5.0002122e+03 1.4497693e+20
 145 3.0558805e+27 5.0738707e+03 1.4745656e+20
 146 3.1008954e+27 5.1486143e+03 1.4997871e+20
 147 3.1465735e+27 5.2244589e+03 1.5254413e+20
 148 3.1929244e+27 5.3014209e+03 1.5515355e+20
 149 3.2399581e+27 5.3795166e+03 1.5780774e+20
 150 3.2876846e+27 5.4587627e+03 1.6050745e+20
 151 3.3361142e+27 5.5391762e+03 1.6325349e+20
 152 3.3852572e+27 5.6207743e+03 1.6604664e+20
 153 3.4351240e+27 5.7035744e+03 1.6888771e+20
 154 3.4857255e+27 5.7875943e+03 1.7177753e+20
 155 3.5370723e+27 5.8728518e+03 1.7471695e+20
 156 3.5891755e+27 5.9593654e+03 1.7770680e+20
 157 3.6420462e+27 6.0471533e+03 1.8074797e+20
 158 3.6956957e+27 6.1362345e+03 1.8384133e+20
 159 3.7501355e+27 6.2266280e+03 1.8698778e+20
 160 3.8053773e+27 6.3183530e+03 1.9018824e+20
 161 3.8614328e+27 6.4114293e+03 1.9344364e+20
 162 3.9183140e+27 6.5058767e+03 1.9675492e+20
 163 3.9760331e+27 6.6017154e+03 2.0012305e+20
 164 4.0346025e+27 6.6989660e+03 2.0354900e+20
 165 4.0940346e+27 6.7976491e+03 2.0703378e+20
 166 4.1543422e+27 6.8977860e+03 2.1057839e+20
 167 4.2155381e+27 6.9993980e+03 2.1418386e+20
 168 4.2776355e+27 7.1025069e+03 2.1785125e+20
 169 4.3406477e+27 7.2071347e+03 2.2158162e+20
 170 4.4045880e+27 7.3133037e+03 2.2537605e+20
 171 4.4694703e+27 7.4210368e+03 2.2923565e+20
 172 4.5353082e+27 7.5303569e+03 2.3316155e+20
 173 4.6021160e+27 7.6412875e+03 2.3715488e+20
 174 4.6699080e+27 7.7538522e+03 2.4121681e+20
 175 4.7386985e+27 7.8680750e+03 2.4534851e+20
 176 4.8085024e+27 7.9839806e+03 2.4955120e+20
 177 4.8793345e+27 8.1015935e+03 2.5382610e+20
 178 4.9512101e+27 8.2209390e+03 2.5817444e+20
 179 5.0241444e+27 8.3420427e+03 2.6259750e+20
 180 5.0981530e+27 8.4649303e+03 2.6709657e+20
 181 5.1732519e+27 8.5896282e+03 2.7167295e+20
 182 5.2494570e+27 8.7161631e+03 2.7632799e+20
 183 5.3267846e+27 8.8445620e+03 2.8106302e+20
 184 5.4052514e+27 8.9748523e+03 2.8587944e+20
 185 5.4848740e+27 9.1070620e+03 2.9077865e+20
 186 5.5656694e+27 9.2412193e+03 2.9576207e+20
 187 5.6476551e+27 9.3773529e+03 3.0083117e+20
 188 5.7308484e+27 9.5154919e+03 3.0598741e+20
 189 5.8152673e+27 9.6556659e+03 3.1123230e+20
 190 5.9009297e+27 9.7979048e+03 3.1656736e+20
 191 5.9878539e+27 9.9422391e+03 3.2199417e+20
 192 6.0760586e+27 1.0088700e+04 3.2751429e+20
 193 6.1655626e+27 1.0237318e+04 3.3312934e+20
 194 6.2563850e+27 1.0388125e+04 3.3884095e+20
 195 6.3485453e+27 1.0541154e+04 3.4465080e+20
 196 6.4420632e+27 1.0696437e+04 3.5056058e+20
 197 6.5369587e+27 1.0854008e+04 3.5657200e+20
 198 6.6332520e+27 1.1013900e+04 3.6268684e+20
 199 6.7309638e+27 1.1176147e+04 3.6890687e+20
 200 6.8301149e+27 1.1340784e+04 3.7523391e+20
 201 6.9307266e+27 1.1507847e+04 3.8166980e+20
 202 7.0328204e+27 1.1677371e+04 3.8821643e+20
 203 7.1364180e+27 1.1849392e+04 3.9487570e+20
 204 7.2415418e+27 1.2023947e+04 4.0164957e+20
 205 7.3482140e+27 1.2201074e+04 4.0854001e+20
 206 7.4564576e+27 1.2380810e+04 4.1554903e+20
 207 7.5662957e+27 1.2563193e+04 4.2267869e+20
 208 7.6777518e+27 1.2748264e+04 4.2993106e+20
 209 7.7908497e+27 1.2936061e+04 4.3730827e+20
 210 7.9056136e+27 1.3126624e+04 4.4481247e+20
 211 8.0220680e+27 1.3319994e+04 4.5244586e+20
 212 8.1402379e+27 1.3516213e+04 4.6021067e+20
 213 8.2601485e+27 1.3715323e+04 4.6810917e+20
 214 8.3818254e+27 1.3917365e+04 4.7614366e+20
 215 8.5052947e+27 1.4122384e+04 4.8431651e+20
 216 8.6305828e+27 1.4330424e+04 4.9263010e+20
 217 8.7577165e+27 1.4541527e+04 5.0108686e+20
 218 8.8867229e+27 1.4755741e+04 5.0968926e+20
 219 9.0176297e+27 1.4973110e+04 5.1843983e+20
 220 9.1504648e+27 1.5193682e+04 5.2734113e+20
 221 9.2852566e+27 1.5417503e+04 5.3639577e+20
 222 9.4220340e+27 1.5644621e+04 5.4560638e+20
 223 9.5608263e+27 1.5875084e+04 5.5497568e+20
 224 9.7016630e+27 1.6108943e+04 5.6450639e+20
 225 9.8445743e+27 1.6346247e+04 5.7420133e+20
 226 9.9895908e+27 1.6587046e+04 5.8406332e+20
 227 1.0136743e+28 1.6831393e+04 5.9409525e+20
 228 1.0286064e+28 1.7079339e+04 6.0430007e+20
 229 1.0437584e+28 1.7330938e+04 6.1468077e+20
 230 1.0591336e+28 1.7586244e+04 6.2524038e+20
 231 1.0747352e+28 1.7845310e+04 6.3598200e+20
 232 1.0905667e+28 1.8108193e+04 6.4690878e+20
 233 1.1066314e+28 1.8374948e+04 6.5802393e+20
 234 1.1229328e+28 1.8645633e+04 6.6933071e+20
 235 1.1394742e+28 1.8920305e+04 6.8083242e+20
 236 1.1562594e+28 1.9199024e+04 6.9253245e+20
 237 1.1732918e+28 1.9481848e+04 7.0443422e+20
 238 1.1905751e+28 1.9768839e+04 7.1654124e+20
 239 1.2081130e+28 2.0060058e+04 7.2885704e+20
 240 1.2259092e+28 2.0355567e+04 7.4138525e+20
 241 1.2439676e+28 2.0655429e+04 7.5412954e+20
 242 1.2622920e+28 2.0959708e+04 7.6709365e+20
 243 1.2808863e+28 2.1268470e+04 7.8028140e+20
 244 1.2997545e+28 2.1581780e+04 7.9369664e+20
 245 1.3189007e+28 2.1899706e+04 8.0734333e+20
 246 1.3383289e+28 2.2222315e+04 8.2122547e+20
 247 1.3580432e+28 2.2549677e+04 8.3534714e+20
 248 1.3780480e+28 2.2881861e+04 8.4971248e+20
 249 1.3983475e+28 2.3218938e+04 8.6432572e+20
 250 1.4189460e+28 2.3560981e+04 8.7919115e+20
 251 1.4398479e+28 2.3908063e+04 8.9431315e+20
 252 1.4610578e+28 2.4260258e+04 9.0969615e+20
 253 1.4825800e+28 2.4617642e+04 9.2534468e+20
 254 1.5044193e+28 2.4980289e+04 9.4126334e+20
 255 1.5265803e+28 2.5348280e+04 9.5745681e+20
 256 1.5490678e+28 2.5721691e+04 9.7392986e+20
 257 1.5718865e+28 2.6100603e+04 9.9068732e+20
 258 1.5950413e+28 2.6485097e+04 1.0077341e+21
 259 1.6185372e+28 2.6875255e+04 1.0250753e+21
 260 1.6423792e+28 2.7271160e+04 1.0427160e+21
 261 1.6665725e+28 2.7672898e+04 1.0606613e+21
 262 1.6911221e+28 2.8080554e+04 1.0789165e+21
 263 1.7160333e+28 2.8494215e+04 1.0974871e+21
 264 1.7413115e+28 2.8913971e+04 1.1163785e+21
 265 1.7669621e+28 2.9339909e+04 1.1355962e+21
 266 1.7929905e+28 2.9772122e+04 1.1551459e+21
 267 1.8194023e+28 3.0210703e+04 1.1750334e+21
 268 1.8462032e+28 3.0655744e+04 1.1952645e+21
 269 1.8733989e+28 3.1107341e+04 1.2158452e+21
 270 1.9009952e+28 3.1565591e+04 1.2367816e+21
 271 1.9289980e+28 3.2030592e+04 1.2580797e+21
 272 1.9574133e+28 3.2502442e+04 1.2797460e+21
 273 1.9862471e+28 3.2981244e+04 1.3017868e+21
 274 2.0155058e+28 3.3467099e+04 1.3242086e+21
 275 2.0451954e+28 3.3960111e+04 1.3470179e+21
 276 2.0753223e+28 3.4460386e+04 1.3702216e+21
 277 2.1058931e+28 3.4968031e+04 1.3938265e+21
 278 2.1369141e+28 3.5483154e+04 1.4178395e+21
 279 2.1683922e+28 3.6005866e+04 1.4422677e+21
 280 2.2003339e+28 3.6536278e+04 1.4671184e+21
 281 2.2327461e+28 3.7074503e+04 1.4923988e+21
 282 2.2656358e+28 3.7620658e+04 1.5181165e+21
 283 2.2990100e+28 3.8174858e+04 1.5442790e+21
 284 2.3328758e+28 3.8737222e+04 1.5708940e+21
 285 2.3672404e+28 3.9307870e+04 1.5979695e+21
 286 2.4021113e+28 3.9886925e+04 1.6255133e+21
 287 2.4374959e+28 4.0474510e+04 1.6535337e+21
 288 2.4734016e+28 4.1070752e+04 1.6820390e+21
 289 2.5098363e+28 4.1675776e+04 1.7110374e+21
 290 2.5468077e+28 4.2289714e+04 1.7405377e+21
 291 2.5843237e+28 4.2912695e+04 1.7705485e+21
 292 2.6223924e+28 4.3544854e+04 1.8010788e+21
 293 2.6610218e+28 4.4186326e+04 1.8321375e+21
 294 2.7002202e+28 4.4837247e+04 1.8637338e+21
 295 2.7399961e+28 4.5497758e+04 1.8958770e+21
 296 2.7803579e+28 4.6167998e+04 1.9285768e+21
 297 2.8213142e+28 4.6848113e+04 1.9618427e+21
 298 2.8628739e+28 4.7538246e+04 1.9956845e+21
 299 2.9050457e+28 4.8238546e+04 2.0301124e+21
 300 2.9478388e+28 4.8949162e+04 2.0651365e+21
 301 2.9912622e+28 4.9670247e+04 2.1007672e+21
 302 3.0353253e+28 5.0401954e+04 2.1370150e+21
 303 3.0800375e+28 5.1144440e+04 2.1738906e+21
 304 3.1254083e+28 5.1897865e+04 2.2114050e+21
 305 3.1714474e+28 5.2662388e+04 2.2495693e+21
 306 3.2181648e+28 5.3438174e+04 2.2883948e+21
 307 3.2655703e+28 5.4225388e+04 2.3278930e+21
 308 3.3136741e+28 5.5024199e+04 2.3680755e+21
 309 3.3624865e+28 5.5834778e+04 2.4089544e+21
 310 3.4120179e+28 5.6657297e+04 2.4505418e+21
 311 3.4622790e+28 5.7491934e+04 2.4928498e+21
 312 3.5132804e+28 5.8338866e+04 2.5358912e+21
 313 3.5650332e+28 5.9198274e+04 2.5796787e+21
 314 3.6175482e+28 6.0070343e+04 2.6242252e+21
 315 3.6708369e+28 6.0955258e+04 2.6695440e+21
 316 3.7249105e+28 6.1853210e+04 2.7156485e+21
 317 3.7797807e+28 6.2764390e+04 2.7625524e+21
 318 3.8354591e+28 6.3688993e+04 2.8102696e+21
 319 3.8919578e+28 6.4627216e+04 2.8588143e+21
 320 3.9492886e+28 6.5579261e+04 2.9082010e+21
 321 4.0074640e+28 6.6545331e+04 2.9584441e+21
 322 4.0664964e+28 6.7525633e+04 3.0095588e+21
 323 4.1263983e+28 6.8520376e+04 3.0615602e+21
 324 4.1871826e+28 6.9529772e+04 3.1144636e+21
 325 4.2488623e+28 7.0554039e+04 3.1682849e+21
 326 4.3114506e+28 7.1593395e+04 3.2230401e+21
 327 4.3749609e+28 7.2648062e+04 3.2787453e+21
 328 4.4394067e+28 7.3718266e+04 3.3354172e+21
 329 4.5048018e+28 7.4804235e+04 3.3930726e+21
 330 4.5711603e+28 7.5906202e+04 3.4517287e+21
 331 4.6384962e+28 7.7024403e+04 3.5114029e+21
 332 4.7068240e+28 7.8159077e+04 3.5721129e+21
 333 4.7761584e+28 7.9310466e+04 3.6338769e+21
 334 4.8465140e+28 8.0478817e+04 3.6967131e+21
 335 4.9179061e+28 8.1664380e+04 3.7606404e+21
 336 4.9903498e+28 8.2867407e+04 3.8256776e+21
 337 5.0638607e+28 8.4088157e+04 3.8918443e+21
 338 5.1384544e+28 8.5326890e+04 3.9591600e+21
 339 5.2141469e+28 8.6583872e+04 4.0276449e+21
 340 5.2909544e+28 8.7859371e+04 4.0973193e+21
 341 5.3688933e+28 8.9153660e+04 4.1682039e+21
 342 5.4479804e+28 9.0467016e+04 4.2403200e+21
 343 5.5282324e+28 9.1799720e+04 4.3136889e+21
 344 5.6096666e+28 9.3152056e+04 4.3883326e+21
 345 5.6923003e+28 9.4524314e+04 4.4642733e+21
 346 5.7761513e+28 9.5916788e+04 4.5415337e+21
 347 5.8612375e+28 9.7329775e+04 4.6201367e+21
 348 5.9475770e+28 9.8763577e+04 4.7001059e+21
 349 6.0351884e+28 1.0021850e+05 4.7814650e+21
 350 6.1240904e+28 1.0169486e+05 4.8642384e+21
 351 6.2143019e+28 1.0319297e+05 4.9484507e+21
 352 6.3058423e+28 1.0471314e+05 5.0341270e+21
 353 6.3987311e+28 1.0625571e+05 5.1212931e+21
 354 6.4929883e+28 1.0782101e+05 5.2099747e+21
 355 6.5886339e+28 1.0940936e+05 5.3001986e+21
 356 6.6856884e+28 1.1102112e+05 5.3919914e+21
 357 6.7841726e+28 1.1265661e+05 5.4853808e+21
 358 6.8841076e+28 1.1431620e+05 5.5803946e+21
 359 6.9855146e+28 1.1600024e+05 5.6770612e+21
 360 7.0884154e+28 1.1770909e+05 5.7754094e+21
 361 7.1928321e+28 1.1944311e+05 5.8754687e+21
 362 7.2987868e+28 1.2120268e+05 5.9772689e+21
 363 7.4063023e+28 1.2298816e+05 6.0808405e+21
 364 7.5154016e+28 1.2479995e+05 6.1862145e+21
 365 7.6261080e+28 1.2663843e+05 6.2934224e+21
 366 7.7384451e+28 1.2850400e+05 6.4024962e+21
 367 7.8524371e+28 1.3039704e+05 6.5134686e+21
 368 7.9681082e+28 1.3231798e+05 6.6263727e+21
 369 8.0854832e+28 1.3426721e+05 6.7412424e+21
 370 8.2045872e+28 1.3624516e+05 6.8581121e+21
 371 8.3254457e+28 1.3825225e+05 6.9770167e+21
 372 8.4480845e+28 1.4028890e+05 7.0979918e+21
 373 8.5725299e+28 1.4235556e+05 7.2210737e+21
 374 8.6988084e+28 1.4445266e+05 7.3462992e+21
 375 8.8269470e+28 1.4658065e+05 7.4737058e+21
 376 8.9569733e+28 1.4874000e+05 7.6033317e+21
 377 9.0889149e+28 1.5093115e+05 7.7352158e+21
 378 9.2228000e+28 1.5315459e+05 7.8693976e+21
 379 9.3586574e+28 1.5541078e+05 8.0059172e+21
 380 9.4965161e+28 1.5770020e+05 8.1448157e+21
 381 9.6364054e+28 1.6002336e+05 8.2861347e+21
 382 9.7783555e+28 1.6238073e+05 8.4299165e+21
 383 9.9223965e+28 1.6477284e+05 8.5762043e+21
 384 1.0068559e+29 1.6720018e+05 8.7250420e+21
 385 1.0216875e+29 1.6966329e+05 8.8764742e+21
 386 1.0367376e+29 1.7216268e+05 9.0305464e+21
 387 1.0520094e+29 1.7469888e+05 9.1873049e+21
 388 1.0675061e+29 1.7727246e+05 9.3467967e+21
 389 1.0832311e+29 1.7988394e+05 9.5090696e+21
 390 1.0991877e+29 1.8253390e+05 9.6741725e+21
 391 1.1153794e+29 1.8522289e+05 9.8421549e+21
 392 1.1318097e+29 1.8795150e+05 1.0013067e+22
 393 1.1484819e+29 1.9072030e+05 1.0186961e+22
 394 1.1653997e+29 1.9352989e+05 1.0363888e+22
 395 1.1825668e+29 1.9638088e+05 1.0543903e+22
 396 1.1999867e+29 1.9927386e+05 1.0727058e+22
 397 1.2176632e+29 2.0220946e+05 1.0913409e+22
 398 1.2356001e+29 2.0518831e+05 1.1103012e+22
 399 1.2538012e+29 2.0821104e+05 1.1295924e+22
 400 1.2722705e+29 2.1127830e+05 1.1492203e+22
 401 1.2910118e+29 2.1439074e+05 1.1691908e+22
 402 1.3100292e+29 2.1754904e+05 1.1895100e+22
 403 1.3293267e+29 2.2075387e+05 1.2101839e+22
 404 1.3489085e+29 2.2400590e+05 1.2312188e+22
 405 1.3687787e+29 2.2730585e+05 1.2526209e+22
 406 1.3889416e+29 2.3065441e+05 1.2743969e+22
 407 1.4094016e+29 2.3405230e+05 1.2965531e+22
 408 1.4301629e+29 2.3750024e+05 1.3190963e+22
 409 1.4512301e+29 2.4099898e+05 1.3420333e+22
 410 1.4726076e+29 2.4454926e+05 1.3653709e+22
 411 1.4942999e+29 2.4815184e+05 1.3891163e+22
 412 1.5163119e+29 2.5180750e+05 1.4132766e+22
 413 1.5386481e+29 2.5551701e+05 1.4378590e+22
 414 1.5613133e+29 2.5928117e+05 1.4628710e+22
 415 1.5843124e+29 2.6310077e+05 1.4883202e+22
 416 1.6076502e+29 2.6697665e+05 1.5142141e+22
 417 1.6313319e+29 2.7090963e+05 1.5405607e+22
 418 1.6553624e+29 2.7490055e+05 1.5673678e+22
 419 1.6797469e+29 2.7895026e+05 1.5946436e+22
 420 1.7044905e+29 2.8305962e+05 1.6223963e+22
 421 1.7295987e+29 2.8722953e+05 1.6506343e+22
 422 1.7550767e+29 2.9146087e+05 1.6793660e+22
 423 1.7809301e+29 2.9575454e+05 1.7086003e+22
 424 1.8071642e+29 3.0011146e+05 1.7383459e+22
 425 1.8337849e+29 3.0453257e+05 1.7686118e+22
 426 1.8607976e+29 3.0901881e+05 1.7994071e+22
 427 1.8882083e+29 3.1357114e+05 1.8307412e+22
 428 1.9160227e+29 3.1819054e+05 1.8626235e+22
 429 1.9442469e+29 3.2287798e+05 1.8950638e+22
 430 1.9728868e+29 3.2763448e+05 1.9280717e+22
 431 2.0019486e+29 3.3246105e+05 1.9616573e+22
 432 2.0314385e+29 3.3735873e+05 1.9958307e+22
 433 2.0613628e+29 3.4232855e+05 2.0306024e+22
 434 2.0917279e+29 3.4737159e+05 2.0659827e+22
 435 2.1225403e+29 3.5248893e+05 2.1019825e+22
 436 2.1538066e+29 3.5768165e+05 2.1386126e+22
 437 2.1855335e+29 3.6295087e+05 2.1758841e+22
 438 2.2177277e+29 3.6829771e+05 2.2138083e+22
 439 2.2503962e+29 3.7372332e+05 2.2523967e+22
 440 2.2835459e+29 3.7922887e+05 2.2916610e+22
 441 2.3171839e+29 3.8481551e+05 2.3316131e+22
 442 2.3513174e+29 3.9048446e+05 2.3722651e+22
 443 2.3859537e+29 3.9623692e+05 2.4136293e+22
 444 2.4211002e+29 4.0207413e+05 2.4557183e+22
 445 2.4567645e+29 4.0799733e+05 2.4985448e+22
 446 2.4929541e+29 4.1400779e+05 2.5421219e+22
 447 2.5296768e+29 4.2010679e+05 2.5864627e+22
 448 2.5669405e+29 4.2629565e+05 2.6315807e+22
 449 2.6047530e+29 4.3257567e+05 2.6774897e+22
 450 2.6431226e+29 4.3894821e+05 2.7242035e+22
 451 2.6820574e+29 4.4541463e+05 2.7717363e+22
 452 2.7215657e+29 4.5197632e+05 2.8201026e+22
 453 2.7616560e+29 4.5863467e+05 2.8693170e+22
 454 2.8023369e+29 4.6539111e+05 2.9193945e+22
 455 2.8436170e+29 4.7224708e+05 2.9703504e+22
 456 2.8855052e+29 4.7920405e+05 3.0222001e+22
 457 2.9280104e+29 4.8626352e+05 3.0749594e+22
 458 2.9711417e+29 4.9342698e+05 3.1286443e+22
 459 3.0149084e+29 5.0069597e+05 3.1832711e+22
 460 3.0593198e+29 5.0807205e+05 3.2388565e+22
 461 3.1043855e+29 5.1555679e+05 3.2954174e+22
 462 3.1501149e+29 5.2315180e+05 3.3529710e+22
 463 3.1965180e+29 5.3085869e+05 3.4115347e+22
 464 3.2436046e+29 5.3867912e+05 3.4711265e+22
 465 3.2913849e+29 5.4661476e+05 3.5317645e+22
 466 3.3398690e+29 5.5466731e+05 3.5934671e+22
 467 3.3890672e+29 5.6283849e+05 3.6562532e+22
 468 3.4389902e+29 5.7113004e+05 3.7201418e+22
 469 3.4896486e+29 5.7954374e+05 3.7851524e+22
 470 3.5410532e+29 5.8808140e+05 3.8513048e+22
 471 3.5932151e+29 5.9674482e+05 3.9186193e+22
 472 3.6461453e+29 6.0553588e+05 3.9871163e+22
 473 3.6998552e+29 6.1445645e+05 4.0568167e+22
 474 3.7543563e+29 6.2350843e+05 4.1277418e+22
 475 3.8096602e+29 6.3269377e+05 4.1999132e+22
 476 3.8657788e+29 6.4201442e+05 4.2733529e+22
 477 3.9227240e+29 6.5147238e+05 4.3480833e+22
 478 3.9805081e+29 6.6106968e+05 4.4241273e+22
 479 4.0391434e+29 6.7080837e+05 4.5015081e+22
 480 4.0986424e+29 6.8069052e+05 4.5802493e+22
 481 4.1590179e+29 6.9071826e+05 4.6603749e+22
 482 4.2202827e+29 7.0089372e+05 4.7419094e+22
 483 4.2824500e+29 7.1121909e+05 4.8248777e+22
 484 4.3455330e+29 7.2169658e+05 4.9093053e+22
 485 4.4095454e+29 7.3232841e+05 4.9952178e+22
 486 4.4745006e+29 7.4311687e+05 5.0826415e+22
 487 4.5404127e+29 7.5406427e+05 5.1716033e+22
 488 4.6072957e+29 7.6517295e+05 5.2621302e+22
 489 4.6751639e+29 7.7644527e+05 5.3542501e+22
 490 4.7440319e+29 7.8788366e+05 5.4479909e+22
 491 4.8139143e+29 7.9949056e+05 5.5433816e+22
 492 4.8848262e+29 8.1126846e+05 5.6404512e+22
 493 4.9567826e+29 8.2321986e+05 5.7392294e+22
 494 5.0297990e+29 8.3534733e+05 5.8397466e+22
 495 5.1038909e+29 8.4765346e+05 5.9420334e+22
 496 5.1790743e+29 8.6014089e+05 6.0461213e+22
 497 5.2553652e+29 8.7281228e+05 6.1520421e+22
 498 5.3327799e+29 8.8567035e+05 6.2598282e+22
 499 5.4113349e+29 8.9871784e+05 6.3695128e+22
 500 5.4910471e+29 9.1195755e+05 6.4811294e+22
 501 5.5719336e+29 9.2539230e+05 6.5947122e+22
 502 5.6540115e+29 9.3902497e+05 6.7102962e+22
 503 5.7372985e+29 9.5285848e+05 6.8279167e+22
 504 5.8218123e+29 9.6689579e+05 6.9476098e+22
 505 5.9075711e+29 9.8113990e+05 7.0694123e+22
 506 5.9945932e+29 9.9559384e+05 7.1933615e+22
 507 6.0828971e+29 1.0102607e+06 7.3194955e+22
 508 6.1725019e+29 1.0251437e+06 7.4478530e+22
 509 6.2634265e+29 1.0402459e+06 7.5784735e+22
 510 6.3556906e+29 1.0555706e+06 7.7113970e+22
 511 6.4493137e+29 1.0711211e+06 7.8466645e+22
 512 6.5443160e+29 1.0869006e+06 7.9843174e+22
 513 6.6407177e+29 1.1029126e+06 8.1243981e+22
 514 6.7385394e+29 1.1191605e+06 8.2669497e+22
 515 6.8378021e+29 1.1356478e+06 8.4120159e+22
 516 6.9385271e+29 1.1523780e+06 8.5596414e+22
 517 7.0407357e+29 1.1693546e+06 8.7098716e+22
 518 7.1444500e+29 1.1865814e+06 8.8627528e+22
 519 7.2496920e+29 1.2040619e+06 9.0183319e+22
 520 7.3564844e+29 1.2217999e+06 9.1766568e+22
 521 7.4648498e+29 1.2397993e+06 9.3377764e+22
 522 7.5748115e+29 1.2580638e+06 9.5017402e+22
 523 7.6863930e+29 1.2765974e+06 9.6685987e+22
 524 7.7996182e+29 1.2954041e+06 9.8384033e+22
 525 7.9145113e+29 1.3144878e+06 1.0011206e+23
 526 8.0310968e+29 1.3338526e+06 1.0187061e+23
 527 8.1493997e+29 1.3535028e+06 1.0366022e+23
 528 8.2694452e+29 1.3734424e+06 1.0548143e+23
 529 8.3912591e+29 1.3936757e+06 1.0733482e+23
 530 8.5148674e+29 1.4142072e+06 1.0922095e+23
 531 8.6402965e+29 1.4350411e+06 1.1114041e+23
 532 8.7675732e+29 1.4561820e+06 1.1309379e+23
 533 8.8967249e+29 1.4776343e+06 1.1508169e+23
 534 9.0277790e+29 1.4994026e+06 1.1710472e+23
 535 9.1607636e+29 1.5214917e+06 1.1916351e+23
 536 9.2957071e+29 1.5439061e+06 1.2125869e+23
 537 9.4326385e+29 1.5666508e+06 1.2339092e+23
 538 9.5715869e+29 1.5897305e+06 1.2556085e+23
 539 9.7125821e+29 1.6131503e+06 1.2776915e+23
 540 9.8556543e+29 1.6369151e+06 1.3001650e+23
 541 1.0000834e+30 1.6610300e+06 1.3230360e+23
 542 1.0148152e+30 1.6855001e+06 1.3463116e+23
 543 1.0297641e+30 1.7103308e+06 1.3699989e+23
 544 1.0449331e+30 1.7355273e+06 1.3941053e+23
 545 1.0603256e+30 1.7610949e+06 1.4186382e+23
 546 1.0759448e+30 1.7870392e+06 1.4436053e+23
 547 1.0917941e+30 1.8133658e+06 1.4690142e+23
 548 1.1078769e+30 1.8400802e+06 1.4948729e+23
 549 1.1241966e+30 1.8671881e+06 1.5211893e+23
 550 1.1407567e+30 1.8946955e+06 1.5479716e+23
 551 1.1575607e+30 1.9226080e+06 1.5752280e+23
 552 1.1746123e+30 1.9509318e+06 1.6029671e+23
 553 1.1919151e+30 1.9796728e+06 1.6311974e+23
 554 1.2094727e+30 2.0088373e+06 1.6599276e+23
 555 1.2272889e+30 2.0384314e+06 1.6891668e+23
 556 1.2453676e+30 2.0684616e+06 1.7189239e+23
 557 1.2637126e+30 2.0989341e+06 1.7492081e+23
 558 1.2823279e+30 2.1298555e+06 1.7800290e+23
 559 1.3012174e+30 2.1612325e+06 1.8113960e+23
 560 1.3203851e+30 2.1930718e+06 1.8433188e+23
 561 1.3398351e+30 2.2253801e+06 1.8758074e+23
 562 1.3595717e+30 2.2581644e+06 1.9088719e+23
 563 1.3795990e+30 2.2914316e+06 1.9425226e+23
 564 1.3999213e+30 2.3251890e+06 1.9767698e+23
 565 1.4205430e+30 2.3594437e+06 2.0116242e+23
 566 1.4414685e+30 2.3942031e+06 2.0470967e+23
 567 1.4627022e+30 2.4294745e+06 2.0831983e+23
 568 1.4842486e+30 2.4652656e+06 2.1199402e+23
 569 1.5061125e+30 2.5015839e+06 2.1573339e+23
 570 1.5282985e+30 2.5384373e+06 2.1953909e+23
 571 1.5508112e+30 2.5758336e+06 2.2341231e+23
 572 1.5736556e+30 2.6137809e+06 2.2735426e+23
 573 1.5968365e+30 2.6522872e+06 2.3136616e+23
 574 1.6203588e+30 2.6913608e+06 2.3544926e+23
 575 1.6442277e+30 2.7310101e+06 2.3960483e+23
 576 1.6684482e+30 2.7712435e+06 2.4383418e+23
 577 1.6930254e+30 2.8120696e+06 2.4813860e+23
 578 1.7179647e+30 2.8534972e+06 2.5251945e+23
 579 1.7432713e+30 2.8955351e+06 2.5697809e+23
 580 1.7689508e+30 2.9381923e+06 2.6151592e+23
 581 1.7950085e+30 2.9814779e+06 2.6613434e+23
 582 1.8214500e+30 3.0254013e+06 2.7083479e+23
 583 1.8482811e+30 3.0699717e+06 2.7561874e+23
 584 1.8755074e+30 3.1151988e+06 2.8048769e+23
 585 1.9031347e+30 3.1610922e+06 2.8544315e+23
 586 1.9311690e+30 3.2076617e+06 2.9048667e+23
 587 1.9596163e+30 3.2549173e+06 2.9561983e+23
 588 1.9884826e+30 3.3028691e+06 3.0084422e+23
 589 2.0177742e+30 3.3515273e+06 3.0616148e+23
 590 2.0474972e+30 3.4009024e+06 3.1157327e+23
 591 2.0776581e+30 3.4510049e+06 3.1708128e+23
 592 2.1082632e+30 3.5018455e+06 3.2268724e+23
 593 2.1393192e+30 3.5534351e+06 3.2839288e+23
 594 2.1708327e+30 3.6057848e+06 3.3420001e+23
 595 2.2028103e+30 3.6589057e+06 3.4011042e+23
 596 2.2352591e+30 3.7128092e+06 3.4612599e+23
 597 2.2681858e+30 3.7675068e+06 3.5224857e+23
 598 2.3015975e+30 3.8230102e+06 3.5848009e+23
 599 2.3355014e+30 3.8793314e+06 3.6482251e+23
 600 2.3699048e+30 3.9364823e+06 3.7127780e+23
 601 2.4048149e+30 3.9944752e+06 3.7784799e+23
 602 2.4402392e+30 4.0533225e+06 3.8453513e+23
 603 2.4761854e+30 4.1130367e+06 3.9134133e+23
 604 2.5126611e+30 4.1736307e+06 3.9826870e+23
 605 2.5496741e+30 4.2351173e+06 4.0531943e+23
 606 2.5872324e+30 4.2975099e+06 4.1249573e+23
 607 2.6253439e+30 4.3608216e+06 4.1979984e+23
 608 2.6640167e+30 4.4250661e+06 4.2723405e+23
 609 2.7032593e+30 4.4902570e+06 4.3480070e+23
 610 2.7430799e+30 4.5564084e+06 4.4250215e+23
 611 2.7834872e+30 4.6235343e+06 4.5034084e+23
 612 2.8244896e+30 4.6916492e+06 4.5831921e+23
 613 2.8660960e+30 4.7607676e+06 4.6643978e+23
 614 2.9083153e+30 4.8309043e+06 4.7470509e+23
 615 2.9511566e+30 4.9020742e+06 4.8311773e+23
 616 2.9946289e+30 4.9742927e+06 4.9168036e+23
 617 3.0387416e+30 5.0475752e+06 5.0039566e+23
 618 3.0835040e+30 5.1219372e+06 5.0926637e+23
 619 3.1289259e+30 5.1973949e+06 5.1829528e+23
 620 3.1750169e+30 5.2739642e+06 5.2748523e+23
 621 3.2217868e+30 5.3516616e+06 5.3683911e+23
 622 3.2692456e+30 5.4305036e+06 5.4635986e+23
 623 3.3174036e+30 5.5105072e+06 5.5605048e+23
 624 3.3662709e+30 5.5916895e+06 5.6591401e+23
 625 3.4158581e+30 5.6740678e+06 5.7595357e+23
 626 3.4661758e+30 5.7576598e+06 5.8617231e+23
 627 3.5172346e+30 5.8424833e+06 5.9657345e+23
 628 3.5690456e+30 5.9285564e+06 6.0716027e+23
 629 3.6216198e+30 6.0158976e+06 6.1793611e+23
 630 3.6749684e+30 6.1045256e+06 6.2890435e+23
 631 3.7291029e+30 6.1944594e+06 6.4006846e+23
 632 3.7840348e+30 6.2857180e+06 6.5143196e+23
 633 3.8397759e+30 6.3783212e+06 6.6299842e+23
 634 3.8963381e+30 6.4722887e+06 6.7477151e+23
 635 3.9537335e+30 6.5676405e+06 6.8675493e+23
 636 4.0119744e+30 6.6643972e+06 6.9895246e+23
 637 4.0710732e+30 6.7625793e+06 7.1136795e+23
 638 4.1310425e+30 6.8622079e+06 7.2400533e+23
 639 4.1918953e+30 6.9633043e+06 7.3686859e+23
 640 4.2536444e+30 7.0658902e+06 7.4996178e+23
 641 4.3163031e+30 7.1699874e+06 7.6328905e+23
 642 4.3798849e+30 7.2756182e+06 7.7685460e+23
 643 4.4444032e+30 7.3828053e+06 7.9066272e+23
 644 4.5098719e+30 7.4915715e+06 8.0471778e+23
 645 4.5763051e+30 7.6019402e+06 8.1902423e+23
 646 4.6437168e+30 7.7139349e+06 8.3358658e+23
 647 4.7121215e+30 7.8275795e+06 8.4840944e+23
 648 4.7815339e+30 7.9428985e+06 8.6349751e+23
 649 4.8519688e+30 8.0599164e+06 8.7885556e+23
 650 4.9234412e+30 8.1786584e+06 8.9448845e+23
 651 4.9959664e+30 8.2991497e+06 9.1040113e+23
 652 5.0695600e+30 8.4214162e+06 9.2659865e+23
 653 5.1442377e+30 8.5454841e+06 9.4308612e+23
 654 5.2200154e+30 8.6713798e+06 9.5986878e+23
 655 5.2969093e+30 8.7991303e+06 9.7695195e+23
 656 5.3749360e+30 8.9287629e+06 9.9434103e+23
 657 5.4541120e+30 9.0603054e+06 1.0120416e+24
 658 5.5344544e+30 9.1937859e+06 1.0300591e+24
 659 5.6159802e+30 9.3292329e+06 1.0483994e+24
 660 5.6987070e+30 9.4666754e+06 1.0670684e+24
 661 5.7826523e+30 9.6061429e+06 1.0860718e+24
 662 5.8678343e+30 9.7476651e+06 1.1054157e+24
 663 5.9542710e+30 9.8912723e+06 1.1251064e+24
 664 6.0419810e+30 1.0036995e+07 1.1451499e+24
 665 6.1309830e+30 1.0184865e+07 1.1655528e+24
 666 6.2212960e+30 1.0334914e+07 1.1863215e+24
 667 6.3129395e+30 1.0487173e+07 1.2074625e+24
 668 6.4059329e+30 1.0641675e+07 1.2289826e+24
 669 6.5002961e+30 1.0798454e+07 1.2508887e+24
 670 6.5960494e+30 1.0957542e+07 1.2731877e+24
 671 6.6932131e+30 1.1118974e+07 1.2958867e+24
 672 6.7918082e+30 1.1282785e+07 1.3189930e+24
 673 6.8918556e+30 1.1449009e+07 1.3425138e+24
 674 6.9933768e+30 1.1617682e+07 1.3664566e+24
 675 7.0963934e+30 1.1788840e+07 1.3908292e+24
 676 7.2009275e+30 1.1962520e+07 1.4156392e+24
 677 7.3070015e+30 1.2138758e+07 1.4408946e+24
 678 7.4146380e+30 1.2317593e+07 1.4666033e+24
 679 7.5238601e+30 1.2499063e+07 1.4927737e+24
 680 7.6346911e+30 1.2683206e+07 1.5194140e+24
 681 7.7471547e+30 1.2870063e+07 1.5465327e+24
 682 7.8612749e+30 1.3059672e+07 1.5741385e+24
 683 7.9770762e+30 1.3252075e+07 1.6022402e+24
 684 8.0945833e+30 1.3447312e+07 1.6308467e+24
 685 8.2138214e+30 1.3645426e+07 1.6599672e+24
 686 8.3348159e+30 1.3846459e+07 1.6896110e+24
 687 8.4575928e+30 1.4050454e+07 1.7197875e+24
 688 8.5821782e+30 1.4257454e+07 1.7505063e+24
 689 8.7085988e+30 1.4467503e+07 1.7817774e+24
 690 8.8368817e+30 1.4680648e+07 1.8136106e+24
 691 8.9670543e+30 1.4896933e+07 1.8460162e+24
 692 9.0991444e+30 1.5116404e+07 1.8790045e+24
 693 9.2331802e+30 1.5339109e+07 1.9125860e+24
 694 9.3691905e+30 1.5565095e+07 1.9467715e+24
 695 9.5072043e+30 1.5794410e+07 1.9815719e+24
 696 9.6472511e+30 1.6027104e+07 2.0169984e+24
 697 9.7893609e+30 1.6263226e+07 2.0530623e+24
 698 9.9335641e+30 1.6502827e+07 2.0897751e+24
 699 1.0079891e+31 1.6745958e+07 2.1271486e+24
 700 1.0228374e+31 1.6992671e+07 2.1651947e+24
 701 1.0379044e+31 1.7243019e+07 2.2039257e+24
 702 1.0531934e+31 1.7497056e+07 2.2433540e+24
 703 1.0687076e+31 1.7754835e+07 2.2834921e+24
 704 1.0844503e+31 1.8016412e+07 2.3243530e+24
 705 1.1004249e+31 1.8281843e+07 2.3659497e+24
 706 1.1166348e+31 1.8551185e+07 2.4082957e+24
 707 1.1330835e+31 1.8824495e+07 2.4514044e+24
 708 1.1497745e+31 1.9101832e+07 2.4952897e+24
 709 1.1667114e+31 1.9383254e+07 2.5399657e+24
 710 1.1838977e+31 1.9668823e+07 2.5854467e+24
 711 1.2013372e+31 1.9958600e+07 2.6317473e+24
 712 1.2190337e+31 2.0252645e+07 2.6788824e+24
 713 1.2369908e+31 2.0551023e+07 2.7268672e+24
 714 1.2552124e+31 2.0853797e+07 2.7757170e+24
 715 1.2737024e+31 2.1161032e+07 2.8254476e+24
 716 1.2924648e+31 2.1472793e+07 2.8760749e+24
 717 1.3115036e+31 2.1789148e+07 2.9276152e+24
 718 1.3308228e+31 2.2110164e+07 2.9800851e+24
 719 1.3504266e+31 2.2435909e+07 3.0335015e+24
 720 1.3703192e+31 2.2766454e+07 3.0878815e+24
 721 1.3905049e+31 2.3101868e+07 3.1432426e+24
 722 1.4109878e+31 2.3442225e+07 3.1996027e+24
 723 1.4317725e+31 2.3787596e+07 3.2569799e+24
 724 1.4528634e+31 2.4138055e+07 3.3153927e+24
 725 1.4742650e+31 2.4493678e+07 3.3748600e+24
 726 1.4959818e+31 2.4854540e+07 3.4354007e+24
 727 1.5180185e+31 2.5220719e+07 3.4970346e+24
 728 1.5403798e+31 2.5592293e+07 3.5597814e+24
 729 1.5630705e+31 2.5969342e+07 3.6236613e+24
 730 1.5860955e+31 2.6351946e+07 3.6886950e+24
 731 1.6094596e+31 2.6740187e+07 3.7549035e+24
 732 1.6331679e+31 2.7134148e+07 3.8223081e+24
 733 1.6572255e+31 2.7533914e+07 3.8909305e+24
 734 1.6816374e+31 2.7939569e+07 3.9607929e+24
 735 1.7064089e+31 2.8351201e+07 4.0319180e+24
 736 1.7315454e+31 2.8768898e+07 4.1043285e+24
 737 1.7570521e+31 2.9192749e+07 4.1780480e+24
 738 1.7829345e+31 2.9622845e+07 4.2531002e+24
 739 1.8091982e+31 3.0059278e+07 4.3295094e+24
 740 1.8358488e+31 3.0502140e+07 4.4073003e+24
 741 1.8628919e+31 3.0951528e+07 4.4864980e+24
 742 1.8903334e+31 3.1407537e+07 4.5671283e+24
 743 1.9181792e+31 3.1870264e+07 4.6492170e+24
 744 1.9464351e+31 3.2339809e+07 4.7327909e+24
 745 1.9751073e+31 3.2816272e+07 4.8178769e+24
 746 2.0042018e+31 3.3299755e+07 4.9045026e+24
 747 2.0337249e+31 3.3790362e+07 4.9926960e+24
 748 2.0636829e+31 3.4288197e+07 5.0824858e+24
 749 2.0940822e+31 3.4793366e+07 5.1739009e+24
 750 2.1249292e+31 3.5305979e+07 5.2669711e+24
 751 2.1562307e+31 3.5826145e+07 5.3617264e+24
 752 2.1879933e+31 3.6353974e+07 5.4581976e+24
 753 2.2202238e+31 3.6889580e+07 5.5564160e+24
 754 2.2529290e+31 3.7433078e+07 5.6564134e+24
 755 2.2861160e+31 3.7984583e+07 5.7582223e+24
 756 2.3197918e+31 3.8544214e+07 5.8618757e+24
 757 2.3539638e+31 3.9112090e+07 5.9674072e+24
 758 2.3886391e+31 3.9688333e+07 6.0748511e+24
 759 2.4238252e+31 4.0273067e+07 6.1842423e+24
 760 2.4595296e+31 4.0866415e+07 6.2956163e+24
 761 2.4957599e+31 4.1468506e+07 6.4090093e+24
 762 2.5325239e+31 4.2079468e+07 6.5244582e+24
 763 2.5698295e+31 4.2699432e+07 6.6420004e+24
 764 2.6076847e+31 4.3328530e+07 6.7616742e+24
 765 2.6460974e+31 4.3966897e+07 6.8835185e+24
 766 2.6850760e+31 4.4614670e+07 7.0075730e+24
 767 2.7246288e+31 4.5271987e+07 7.1338779e+24
 768 2.7647642e+31 4.5938988e+07 7.2624744e+24
 769 2.8054909e+31 4.6615817e+07 7.3934043e+24
 770 2.8468174e+31 4.7302618e+07 7.5267103e+24
 771 2.8887528e+31 4.7999539e+07 7.6624358e+24
 772 2.9313058e+31 4.8706728e+07 7.8006250e+24
 773 2.9744857e+31 4.9424336e+07 7.9413229e+24
 774 3.0183017e+31 5.0152517e+07 8.0845753e+24
 775 3.0627631e+31 5.0891428e+07 8.2304290e+24
 776 3.1078794e+31 5.1641225e+07 8.3789315e+24
 777 3.1536603e+31 5.2402070e+07 8.5301312e+24
 778 3.2001157e+31 5.3174125e+07 8.6840775e+24
 779 3.2472553e+31 5.3957555e+07 8.8408206e+24
 780 3.2950893e+31 5.4752529e+07 9.0004116e+24
 781 3.3436279e+31 5.5559215e+07 9.1629026e+24
 782 3.3928816e+31 5.6377787e+07 9.3283467e+24
 783 3.4428608e+31 5.7208420e+07 9.4967980e+24
 784 3.4935762e+31 5.8051292e+07 9.6683114e+24
 785 3.5450387e+31 5.8906582e+07 9.8429429e+24
 786 3.5972592e+31 5.9774474e+07 1.0020750e+25
 787 3.6502490e+31 6.0655154e+07 1.0201790e+25
 788 3.7040194e+31 6.1548809e+07 1.0386123e+25
 789 3.7585818e+31 6.2455632e+07 1.0573808e+25
 790 3.8139479e+31 6.3375816e+07 1.0764908e+25
 791 3.8701297e+31 6.4309557e+07 1.0959485e+25
 792 3.9271390e+31 6.5257057e+07 1.1157602e+25
 793 3.9849881e+31 6.6218517e+07 1.1359324e+25
 794 4.0436894e+31 6.7194144e+07 1.1564718e+25
 795 4.1032554e+31 6.8184145e+07 1.1773851e+25
 796 4.1636988e+31 6.9188733e+07 1.1986791e+25
 797 4.2250326e+31 7.0208123e+07 1.2203607e+25
 798 4.2872698e+31 7.1242532e+07 1.2424372e+25
 799 4.3504239e+31 7.2292183e+07 1.2649157e+25
 800 4.4145083e+31 7.3357300e+07 1.2878036e+25
 801 4.4795366e+31 7.4438110e+07 1.3111084e+25
 802 4.5455229e+31 7.5534844e+07 1.3348378e+25
 803 4.6124812e+31 7.6647739e+07 1.3589996e+25
 804 4.6804258e+31 7.7777031e+07 1.3836016e+25
 805 4.7493713e+31 7.8922962e+07 1.4086520e+25
 806 4.8193323e+31 8.0085778e+07 1.4341590e+25
 807 4.8903240e+31 8.1265726e+07 1.4601309e+25
 808 4.9623614e+31 8.2463061e+07 1.4865763e+25
 809 5.0354600e+31 8.3678037e+07 1.5135039e+25
 810 5.1096353e+31 8.4910915e+07 1.5409226e+25
 811 5.1849033e+31 8.6161959e+07 1.5688413e+25
 812 5.2612801e+31 8.7431435e+07 1.5972693e+25
 813 5.3387819e+31 8.8719617e+07 1.6262158e+25
 814 5.4174253e+31 9.0026779e+07 1.6556905e+25
 815 5.4972273e+31 9.1353201e+07 1.6857030e+25
 816 5.5782047e+31 9.2699168e+07 1.7162631e+25
 817 5.6603750e+31 9.4064966e+07 1.7473811e+25
 818 5.7437557e+31 9.5450888e+07 1.7790670e+25
 819 5.8283647e+31 9.6857231e+07 1.8113314e+25
 820 5.9142200e+31 9.8284296e+07 1.8441848e+25
 821 6.0013400e+31 9.9732388e+07 1.8776382e+25
 822 6.0897434e+31 1.0120182e+08 1.9117025e+25
 823 6.1794490e+31 1.0269290e+08 1.9463889e+25
 824 6.2704760e+31 1.0420595e+08 1.9817090e+25
 825 6.3628438e+31 1.0574129e+08 2.0176743e+25
 826 6.4565723e+31 1.0729926e+08 2.0542968e+25
 827 6.5516815e+31 1.0888018e+08 2.0915885e+25
 828 6.6481917e+31 1.1048439e+08 2.1295617e+25
 829 6.7461236e+31 1.1211225e+08 2.1682290e+25
 830 6.8454980e+31 1.1376409e+08 2.2076031e+25
 831 6.9463363e+31 1.1544027e+08 2.2476971e+25
 832 7.0486600e+31 1.1714114e+08 2.2885242e+25
 833 7.1524910e+31 1.1886708e+08 2.3300979e+25
 834 7.2578515e+31 1.2061845e+08 2.3724319e+25
 835 7.3647640e+31 1.2239562e+08 2.4155403e+25
 836 7.4732514e+31 1.2419898e+08 2.4594373e+25
 837 7.5833369e+31 1.2602892e+08 2.5041374e+25
 838 7.6950440e+31 1.2788581e+08 2.5496555e+25
 839 7.8083966e+31 1.2977007e+08 2.5960066e+25
 840 7.9234190e+31 1.3168209e+08 2.6432060e+25
 841 8.0401357e+31 1.3362228e+08 2.6912694e+25
 842 8.1585717e+31 1.3559106e+08 2.7402127e+25
 843 8.2787524e+31 1.3758885e+08 2.7900521e+25
 844 8.4007034e+31 1.3961608e+08 2.8408042e+25
 845 8.5244508e+31 1.4167318e+08 2.8924857e+25
 846 8.6500211e+31 1.4376059e+08 2.9451138e+25
 847 8.7774411e+31 1.4587876e+08 2.9987061e+25
 848 8.9067380e+31 1.4802813e+08 3.0532801e+25
 849 9.0379396e+31 1.5020918e+08 3.1088541e+25
 850 9.1710739e+31 1.5242237e+08 3.1654466e+25
 851 9.3061693e+31 1.5466816e+08 3.2230762e+25
 852 9.4432548e+31 1.5694705e+08 3.2817622e+25
 853 9.5823596e+31 1.5925952e+08 3.3415240e+25
 854 9.7235135e+31 1.6160606e+08 3.4023815e+25
 855 9.8667467e+31 1.6398718e+08 3.4643549e+25
 856 1.0012090e+32 1.6640338e+08 3.5274648e+25
 857 1.0159574e+32 1.6885519e+08 3.5917323e+25
 858 1.0309231e+32 1.7134312e+08 3.6571786e+25
 859 1.0461092e+32 1.7386771e+08 3.7238256e+25
 860 1.0615190e+32 1.7642950e+08 3.7916954e+25
 861 1.0771558e+32 1.7902904e+08 3.8608107e+25
 862 1.0930229e+32 1.8166688e+08 3.9311944e+25
 863 1.1091238e+32 1.8434360e+08 4.0028699e+25
 864 1.1254619e+32 1.8705975e+08 4.0758613e+25
 865 1.1420406e+32 1.8981593e+08 4.1501927e+25
 866 1.1588636e+32 1.9261272e+08 4.2258889e+25
 867 1.1759343e+32 1.9545072e+08 4.3029753e+25
 868 1.1932565e+32 1.9833053e+08 4.3814774e+25
 869 1.2108339e+32 2.0125279e+08 4.4614215e+25
 870 1.2286702e+32 2.0421810e+08 4.5428342e+25
 871 1.2467693e+32 2.0722711e+08 4.6257427e+25
 872 1.2651349e+32 2.1028045e+08 4.7101747e+25
 873 1.2837711e+32 2.1337879e+08 4.7961584e+25
 874 1.3026819e+32 2.1652278e+08 4.8837225e+25
 875 1.3218711e+32 2.1971310e+08 4.9728962e+25
 876 1.3413431e+32 2.2295042e+08 5.0637093e+25
 877 1.3611019e+32 2.2623545e+08 5.1561922e+25
 878 1.3811517e+32 2.2956889e+08 5.2503757e+25
 879 1.4014969e+32 2.3295145e+08 5.3462915e+25
 880 1.4221418e+32 2.3638385e+08 5.4439715e+25
 881 1.4430908e+32 2.3986682e+08 5.5434484e+25
 882 1.4643484e+32 2.4340112e+08 5.6447555e+25
 883 1.4859192e+32 2.4698750e+08 5.7479268e+25
 884 1.5078076e+32 2.5062672e+08 5.8529967e+25
 885 1.5300185e+32 2.5431958e+08 5.9600005e+25
 886 1.5525566e+32 2.5806684e+08 6.0689740e+25
 887 1.5754267e+32 2.6186932e+08 6.1799536e+25
 888 1.5986337e+32 2.6572784e+08 6.2929767e+25
 889 1.6221825e+32 2.6964321e+08 6.4080810e+25
 890 1.6460783e+32 2.7361628e+08 6.5253052e+25
 891 1.6703260e+32 2.7764789e+08 6.6446886e+25
 892 1.6949309e+32 2.8173891e+08 6.7662712e+25
 893 1.7198982e+32 2.8589021e+08 6.8900938e+25
 894 1.7452334e+32 2.9010268e+08 7.0161980e+25
 895 1.7709417e+32 2.9437723e+08 7.1446261e+25
 896 1.7970288e+32 2.9871476e+08 7.2754213e+25
 897 1.8235001e+32 3.0311622e+08 7.4086274e+25
 898 1.8503613e+32 3.0758252e+08 7.5442893e+25
 899 1.8776182e+32 3.1211465e+08 7.6824525e+25
 900 1.9052767e+32 3.1671355e+08 7.8231634e+25
 901 1.9333426e+32 3.2138023e+08 7.9664694e+25
 902 1.9618219e+32 3.2611567e+08 8.1124187e+25
 903 1.9907207e+32 3.3092089e+08 8.2610603e+25
 904 2.0200452e+32 3.3579692e+08 8.4124443e+25
 905 2.0498017e+32 3.4074480e+08 8.5666216e+25
 906 2.0799965e+32 3.4576560e+08 8.7236441e+25
 907 2.1106361e+32 3.5086037e+08 8.8835647e+25
 908 2.1417270e+32 3.5603023e+08 9.0464373e+25
 909 2.1732759e+32 3.6127626e+08 9.2123168e+25
 910 2.2052896e+32 3.6659960e+08 9.3812589e+25
 911 2.2377748e+32 3.7200139e+08 9.5533208e+25
 912 2.2707386e+32 3.7748277e+08 9.7285603e+25
 913 2.3041879e+32 3.8304493e+08 9.9070367e+25
 914 2.3381300e+32 3.8868905e+08 1.0088810e+26
 915 2.3725721e+32 3.9441634e+08 1.0273942e+26
 916 2.4075215e+32 4.0022803e+08 1.0462494e+26
 917 2.4429857e+32 4.0612536e+08 1.0654531e+26
 918 2.4789724e+32 4.1210959e+08 1.0850118e+26
 919 2.5154891e+32 4.1818200e+08 1.1049319e+26
 920 2.5525438e+32 4.2434390e+08 1.1252204e+26
 921 2.5901443e+32 4.3059661e+08 1.1458839e+26
 922 2.6282987e+32 4.3694145e+08 1.1669296e+26
 923 2.6670151e+32 4.4337979e+08 1.1883645e+26
 924 2.7063018e+32 4.4991300e+08 1.2101959e+26
 925 2.7461673e+32 4.5654249e+08 1.2324311e+26
 926 2.7866199e+32 4.6326968e+08 1.2550778e+26
 927 2.8276685e+32 4.7009599e+08 1.2781434e+26
 928 2.8693218e+32 4.7702290e+08 1.3016360e+26
 929 2.9115886e+32 4.8405189e+08 1.3255633e+26
 930 2.9544781e+32 4.9118446e+08 1.3499336e+26
 931 2.9979993e+32 4.9842213e+08 1.3747551e+26
 932 3.0421616e+32 5.0576646e+08 1.4000361e+26
 933 3.0869745e+32 5.1321902e+08 1.4257853e+26
 934 3.1324475e+32 5.2078141e+08 1.4520114e+26
 935 3.1785903e+32 5.2845523e+08 1.4787233e+26
 936 3.2254129e+32 5.3624214e+08 1.5059300e+26
 937 3.2729251e+32 5.4414380e+08 1.5336408e+26
 938 3.3211373e+32 5.5216190e+08 1.5618652e+26
 939 3.3700596e+32 5.6029816e+08 1.5906125e+26
 940 3.4197026e+32 5.6855432e+08 1.6198927e+26
 941 3.4700769e+32 5.7693214e+08 1.6497157e+26
 942 3.5211932e+32 5.8543343e+08 1.6800917e+26
 943 3.5730625e+32 5.9405999e+08 1.7110308e+26
 944 3.6256959e+32 6.0281368e+08 1.7425437e+26
 945 3.6791045e+32 6.1169637e+08 1.7746411e+26
 946 3.7333000e+32 6.2070996e+08 1.8073339e+26
 947 3.7882937e+32 6.2985638e+08 1.8406332e+26
 948 3.8440975e+32 6.3913759e+08 1.8745504e+26
 949 3.9007234e+32 6.4855557e+08 1.9090969e+26
 950 3.9581834e+32 6.5811234e+08 1.9442846e+26
 951 4.0164898e+32 6.6780995e+08 1.9801255e+26
 952 4.0756551e+32 6.7765046e+08 2.0166317e+26
 953 4.1356920e+32 6.8763600e+08 2.0538157e+26
 954 4.1966132e+32 6.9776869e+08 2.0916902e+26
 955 4.2584318e+32 7.0805070e+08 2.1302681e+26
 956 4.3211611e+32 7.1848423e+08 2.1695626e+26
 957 4.3848144e+32 7.2907153e+08 2.2095869e+26
 958 4.4494053e+32 7.3981484e+08 2.2503549e+26
 959 4.5149478e+32 7.5071648e+08 2.2918805e+26
 960 4.5814556e+32 7.6177878e+08 2.3341777e+26
 961 4.6489432e+32 7.7300410e+08 2.3772611e+26
 962 4.7174250e+32 7.8439484e+08 2.4211453e+26
 963 4.7869155e+32 7.9595345e+08 2.4658454e+26
 964 4.8574296e+32 8.0768240e+08 2.5113767e+26
 965 4.9289825e+32 8.1958420e+08 2.5577547e+26
 966 5.0015893e+32 8.3166140e+08 2.6049952e+26
 967 5.0752657e+32 8.4391658e+08 2.6531145e+26
 968 5.1500275e+32 8.5635237e+08 2.7021289e+26
 969 5.2258904e+32 8.6897142e+08 2.7520554e+26
 970 5.3028710e+32 8.8177645e+08 2.8029109e+26
 971 5.3809854e+32 8.9477018e+08 2.8547128e+26
 972 5.4602506e+32 9.0795540e+08 2.9074790e+26
 973 5.5406833e+32 9.2133494e+08 2.9612275e+26
 974 5.6223009e+32 9.3491165e+08 3.0159768e+26
 975 5.7051208e+32 9.4868845e+08 3.0717455e+26
 976 5.7891607e+32 9.6266828e+08 3.1285529e+26
 977 5.8744385e+32 9.7685414e+08 3.1864183e+26
 978 5.9609725e+32 9.9124906e+08 3.2453617e+26
 979 6.0487812e+32 1.0058561e+09 3.3054033e+26
 980 6.1378834e+32 1.0206785e+09 3.3665637e+26
 981 6.2282981e+32 1.0357192e+09 3.4288639e+26
 982 6.3200446e+32 1.0509817e+09 3.4923253e+26
 983 6.4131427e+32 1.0664690e+09 3.5569697e+26
 984 6.5076121e+32 1.0821846e+09 3.6228194e+26
 985 6.6034732e+32 1.0981319e+09 3.6898969e+26
 986 6.7007463e+32 1.1143141e+09 3.7582253e+26
 987 6.7994523e+32 1.1307348e+09 3.8278281e+26
 988 6.8996123e+32 1.1473976e+09 3.8987294e+26
 989 7.0012477e+32 1.1643059e+09 3.9709534e+26
 990 7.1043803e+32 1.1814634e+09 4.0445250e+26
 991 7.2090321e+32 1.1988737e+09 4.1194696e+26
 992 7.3152255e+32 1.2165407e+09 4.1958130e+26
 993 7.4229831e+32 1.2344680e+09 4.2735815e+26
 994 7.5323281e+32 1.2526595e+09 4.3528019e+26
 995 7.6432839e+32 1.2711191e+09 4.4335015e+26
 996 7.7558740e+32 1.2898508e+09 4.5157081e+26
 997 7.8701227e+32 1.3088586e+09 4.5994501e+26
 998 7.9860543e+32 1.3281464e+09 4.6847564e+26
 999 8.1036937e+32 1.3477186e+09 4.7716564e+26
1000 8.2230660e+32 1.3675792e+09 4.8601801e+26
1001 8.3441967e+32 1.3877325e+09 4.9503582e+26
1002 8.4671117e+32 1.4081828e+09 5.0422216e+26
1003 8.5918373e+32 1.4289345e+09 5.1358023e+26
1004 8.7184003e+32 1.4499921e+09 5.2311324e+26
1005 8.8468275e+32 1.4713600e+09 5.3282451e+26
1006 8.9771466e+32 1.4930428e+09 5.4271738e+26
1007 9.1093854e+32 1.5150452e+09 5.5279527e+26
1008 9.2435721e+32 1.5373719e+09 5.6306169e+26
1009 9.3797355e+32 1.5600276e+09 5.7352017e+26
1010 9.5179046e+32 1.5830172e+09 5.8417434e+26
1011 9.6581090e+32 1.6063457e+09 5.9502789e+26
1012 9.8003788e+32 1.6300180e+09 6.0608458e+26
1013 9.9447442e+32 1.6540391e+09 6.1734824e+26
1014 1.0091236e+33 1.6784144e+09 6.2882277e+26
1015 1.0239886e+33 1.7031488e+09 6.4051216e+26
1016 1.0390726e+33 1.7282478e+09 6.5242045e+26
1017 1.0543788e+33 1.7537167e+09 6.6455178e+26
1018 1.0699104e+33 1.7795610e+09 6.7691036e+26
1019 1.0856708e+33 1.8057862e+09 6.8950048e+26
1020 1.1016634e+33 1.8323979e+09 7.0232650e+26
1021 1.1178916e+33 1.8594019e+09 7.1539289e+26
1022 1.1343588e+33 1.8868038e+09 7.2870418e+26
1023 1.1510686e+33 1.9146096e+09 7.4226500e+26
1024 1.1680245e+33 1.9428252e+09 7.5608006e+26
1025 1.1852302e+33 1.9714567e+09 7.7015417e+26
1026 1.2026893e+33 2.0005102e+09 7.8449222e+26
1027 1.2204057e+33 2.0299919e+09 7.9909920e+26
1028 1.2383830e+33 2.0599081e+09 8.1398019e+26
1029 1.2566251e+33 2.0902653e+09 8.2914039e+26
1030 1.2751360e+33 2.1210699e+09 8.4458505e+26
1031 1.2939195e+33 2.1523285e+09 8.6031957e+26
1032 1.3129797e+33 2.1840478e+09 8.7634943e+26
1033 1.3323207e+33 2.2162346e+09 8.9268021e+26
1034 1.3519465e+33 2.2488958e+09 9.0931761e+26
1035 1.3718615e+33 2.2820385e+09 9.2626743e+26
1036 1.3920699e+33 2.3156696e+09 9.4353559e+26
1037 1.4125759e+33 2.3497964e+09 9.6112810e+26
1038 1.4333840e+33 2.3844262e+09 9.7905112e+26
1039 1.4544986e+33 2.4195664e+09 9.9731090e+26
1040 1.4759242e+33 2.4552246e+09 1.0159138e+27
1041 1.4976655e+33 2.4914083e+09 1.0348664e+27
1042 1.5197270e+33 2.5281254e+09 1.0541752e+27
1043 1.5421135e+33 2.5653836e+09 1.0738470e+27
1044 1.5648297e+33 2.6031910e+09 1.0938887e+27
1045 1.5878806e+33 2.6415557e+09 1.1143073e+27
1046 1.6112711e+33 2.6804858e+09 1.1351100e+27
1047 1.6350060e+33 2.7199898e+09 1.1563040e+27
1048 1.6590907e+33 2.7600760e+09 1.1778967e+27
1049 1.6835301e+33 2.8007531e+09 1.1998958e+27
1050 1.7083295e+33 2.8420297e+09 1.2223089e+27
1051 1.7334942e+33 2.8839147e+09 1.2451438e+27
1052 1.7590296e+33 2.9264171e+09 1.2684086e+27
1053 1.7849412e+33 2.9695460e+09 1.2921115e+27
1054 1.8112344e+33 3.0133105e+09 1.3162607e+27
1055 1.8379150e+33 3.0577202e+09 1.3408647e+27
1056 1.8649886e+33 3.1027844e+09 1.3659323e+27
1057 1.8924610e+33 3.1485129e+09 1.3914720e+27
1058 1.9203381e+33 3.1949154e+09 1.4174930e+27
1059 1.9486258e+33 3.2420019e+09 1.4440044e+27
1060 1.9773302e+33 3.2897824e+09 1.4710155e+27
1061 2.0064575e+33 3.3382672e+09 1.4985357e+27
1062 2.0360138e+33 3.3874666e+09 1.5265748e+27
1063 2.0660055e+33 3.4373913e+09 1.5551427e+27
1064 2.0964390e+33 3.4880519e+09 1.5842493e+27
1065 2.1273208e+33 3.5394592e+09 1.6139050e+27
1066 2.1586575e+33 3.5916242e+09 1.6441201e+27
1067 2.1904559e+33 3.6445582e+09 1.6749053e+27
1068 2.2227226e+33 3.6982725e+09 1.7062715e+27
1069 2.2554646e+33 3.7527785e+09 1.7382297e+27
1070 2.2886890e+33 3.8080879e+09 1.7707912e+27
1071 2.3224027e+33 3.8642126e+09 1.8039674e+27
1072 2.3566131e+33 3.9211646e+09 1.8377701e+27
1073 2.3913275e+33 3.9789561e+09 1.8722112e+27
1074 2.4265531e+33 4.0375995e+09 1.9073029e+27
1075 2.4622977e+33 4.0971073e+09 1.9430574e+27
1076 2.4985689e+33 4.1574923e+09 1.9794876e+27
1077 2.5353743e+33 4.2187674e+09 2.0166062e+27
1078 2.5727219e+33 4.2809458e+09 2.0544263e+27
1079 2.6106196e+33 4.3440407e+09 2.0929614e+27
1080 2.6490756e+33 4.4080656e+09 2.1322250e+27
1081 2.6880981e+33 4.4730343e+09 2.1722311e+27
1082 2.7276954e+33 4.5389607e+09 2.2129938e+27
1083 2.7678760e+33 4.6058590e+09 2.2545275e+27
1084 2.8086484e+33 4.6737433e+09 2.2968469e+27
1085 2.8500215e+33 4.7426284e+09 2.3399671e+27
1086 2.8920040e+33 4.8125289e+09 2.3839034e+27
1087 2.9346050e+33 4.8834597e+09 2.4286712e+27
1088 2.9778335e+33 4.9554362e+09 2.4742864e+27
1089 3.0216988e+33 5.0284737e+09 2.5207653e+27
1090 3.0662102e+33 5.1025878e+09 2.5681244e+27
1091 3.1113773e+33 5.1777945e+09 2.6163803e+27
1092 3.1572098e+33 5.2541098e+09 2.6655504e+27
1093 3.2037174e+33 5.3315501e+09 2.7156519e+27
1094 3.2509100e+33 5.4101319e+09 2.7667029e+27
1095 3.2987979e+33 5.4898722e+09 2.8187212e+27
1096 3.3473912e+33 5.5707879e+09 2.8717256e+27
1097 3.3967003e+33 5.6528965e+09 2.9257348e+27
1098 3.4467357e+33 5.7362155e+09 2.9807679e+27
1099 3.4975082e+33 5.8207627e+09 3.0368447e+27
1100 3.5490286e+33 5.9065562e+09 3.0939851e+27
1101 3.6013079e+33 5.9936145e+09 3.1522094e+27
1102 3.6543573e+33 6.0819562e+09 3.2115384e+27
1103 3.7081882e+33 6.1716002e+09 3.2719931e+27
1104 3.7628120e+33 6.2625657e+09 3.3335952e+27
1105 3.8182405e+33 6.3548722e+09 3.3963666e+27
1106 3.8744855e+33 6.4485395e+09 3.4603296e+27
1107 3.9315590e+33 6.5435876e+09 3.5255072e+27
1108 3.9894732e+33 6.6400369e+09 3.5919226e+27
1109 4.0482405e+33 6.7379081e+09 3.6595994e+27
1110 4.1078736e+33 6.8372220e+09 3.7285619e+27
1111 4.1683850e+33 6.9380001e+09 3.7988346e+27
1112 4.2297878e+33 7.0402638e+09 3.8704428e+27
1113 4.2920951e+33 7.1440352e+09 3.9434120e+27
1114 4.3553203e+33 7.2493364e+09 4.0177682e+27
1115 4.4194767e+33 7.3561899e+09 4.0935381e+27
1116 4.4845783e+33 7.4646187e+09 4.1707488e+27
1117 4.5506388e+33 7.5746460e+09 4.2494279e+27
1118 4.6176725e+33 7.6862954e+09 4.3296037e+27
1119 4.6856936e+33 7.7995908e+09 4.4113047e+27
1120 4.7547166e+33 7.9145564e+09 4.4945603e+27
1121 4.8247565e+33 8.0312169e+09 4.5794004e+27
1122 4.8958280e+33 8.1495974e+09 4.6658553e+27
1123 4.9679465e+33 8.2697230e+09 4.7539560e+27
1124 5.0411273e+33 8.3916196e+09 4.8437342e+27
1125 5.1153862e+33 8.5153134e+09 4.9352220e+27
1126 5.1907389e+33 8.6408307e+09 5.0284523e+27
1127 5.2672016e+33 8.7681985e+09 5.1234586e+27
1128 5.3447906e+33 8.8974441e+09 5.2202751e+27
1129 5.4235226e+33 9.0285952e+09 5.3189364e+27
1130 5.5034143e+33 9.1616798e+09 5.4194781e+27
1131 5.5844829e+33 9.2967265e+09 5.5219362e+27
1132 5.6667457e+33 9.4337642e+09 5.6263478e+27
1133 5.7502203e+33 9.5728223e+09 5.7327502e+27
1134 5.8349245e+33 9.7139306e+09 5.8411819e+27
1135 5.9208764e+33 9.8571192e+09 5.9516818e+27
1136 6.0080945e+33 1.0002419e+10 6.0642898e+27
1137 6.0965973e+33 1.0149861e+10 6.1790463e+27
1138 6.1864039e+33 1.0299477e+10 6.2959929e+27
1139 6.2775333e+33 1.0451298e+10 6.4151715e+27
1140 6.3700052e+33 1.0605358e+10 6.5366252e+27
1141 6.4638392e+33 1.0761690e+10 6.6603978e+27
1142 6.5590554e+33 1.0920326e+10 6.7865340e+27
1143 6.6556742e+33 1.1081301e+10 6.9150792e+27
1144 6.7537163e+33 1.1244650e+10 7.0460799e+27
1145 6.8532026e+33 1.1410407e+10 7.1795834e+27
1146 6.9541544e+33 1.1578608e+10 7.3156379e+27
1147 7.0565932e+33 1.1749289e+10 7.4542926e+27
1148 7.1605411e+33 1.1922486e+10 7.5955975e+27
1149 7.2660202e+33 1.2098237e+10 7.7396039e+27
1150 7.3730530e+33 1.2276580e+10 7.8863637e+27
1151 7.4816625e+33 1.2457552e+10 8.0359301e+27
1152 7.5918719e+33 1.2641192e+10 8.1883572e+27
1153 7.7037047e+33 1.2827539e+10 8.3437001e+27
1154 7.8171849e+33 1.3016635e+10 8.5020152e+27
1155 7.9323367e+33 1.3208518e+10 8.6633598e+27
1156 8.0491848e+33 1.3403231e+10 8.8277923e+27
1157 8.1677541e+33 1.3600815e+10 8.9953723e+27
1158 8.2880701e+33 1.3801312e+10 9.1661606e+27
1159 8.4101583e+33 1.4004765e+10 9.3402191e+27
1160 8.5340450e+33 1.4211218e+10 9.5176110e+27
1161 8.6597566e+33 1.4420715e+10 9.6984006e+27
1162 8.7873200e+33 1.4633302e+10 9.8826536e+27
1163 8.9167625e+33 1.4849023e+10 1.0070437e+28
1164 9.0481118e+33 1.5067924e+10 1.0261818e+28
1165 9.1813959e+33 1.5290053e+10 1.0456868e+28
1166 9.3166434e+33 1.5515458e+10 1.0655656e+28
1167 9.4538831e+33 1.5744186e+10 1.0858256e+28
1168 9.5931445e+33 1.5976287e+10 1.1064740e+28
1169 9.7344573e+33 1.6211811e+10 1.1275184e+28
1170 9.8778517e+33 1.6450807e+10 1.1489664e+28
1171 1.0023358e+34 1.6693327e+10 1.1708259e+28
1172 1.0171008e+34 1.6939424e+10 1.1931048e+28
1173 1.0320833e+34 1.7189149e+10 1.2158112e+28
1174 1.0472866e+34 1.7442557e+10 1.2389533e+28
1175 1.0627137e+34 1.7699701e+10 1.2625397e+28
1176 1.0783681e+34 1.7960637e+10 1.2865788e+28
1177 1.0942531e+34 1.8225421e+10 1.3110796e+28
1178 1.1103721e+34 1.8494109e+10 1.3360508e+28
1179 1.1267286e+34 1.8766760e+10 1.3615015e+28
1180 1.1433260e+34 1.9043431e+10 1.3874412e+28
1181 1.1601679e+34 1.9324181e+10 1.4138792e+28
1182 1.1772578e+34 1.9609072e+10 1.4408251e+28
1183 1.1945995e+34 1.9898164e+10 1.4682889e+28
1184 1.2121967e+34 2.0191519e+10 1.4962805e+28
1185 1.2300531e+34 2.0489199e+10 1.5248102e+28
1186 1.2481725e+34 2.0791270e+10 1.5538883e+28
1187 1.2665588e+34 2.1097795e+10 1.5835255e+28
1188 1.2852160e+34 2.1408840e+10 1.6137326e+28
1189 1.3041480e+34 2.1724472e+10 1.6445207e+28
1190 1.3233589e+34 2.2044759e+10 1.6759010e+28
1191 1.3428528e+34 2.2369769e+10 1.7078849e+28
1192 1.3626338e+34 2.2699571e+10 1.7404843e+28
1193 1.3827062e+34 2.3034238e+10 1.7737109e+28
1194 1.4030743e+34 2.3373839e+10 1.8075769e+28
1195 1.4237424e+34 2.3718449e+10 1.8420947e+28
1196 1.4447150e+34 2.4068141e+10 1.8772770e+28
1197 1.4659965e+34 2.4422990e+10 1.9131367e+28
1198 1.4875915e+34 2.4783071e+10 1.9496867e+28
1199 1.5095047e+34 2.5148464e+10 1.9869406e+28
1200 1.5317406e+34 2.5519244e+10 2.0249120e+28
1201 1.5543040e+34 2.5895493e+10 2.0636147e+28
1202 1.5771999e+34 2.6277291e+10 2.1030629e+28
1203 1.6004330e+34 2.6664719e+10 2.1432711e+28
1204 1.6240083e+34 2.7057861e+10 2.1842540e+28
1205 1.6479309e+34 2.7456801e+10 2.2260266e+28
1206 1.6722059e+34 2.7861624e+10 2.2686043e+28
1207 1.6968385e+34 2.8272418e+10 2.3120025e+28
1208 1.7218340e+34 2.8689270e+10 2.3562372e+28
1209 1.7471976e+34 2.9112270e+10 2.4013247e+28
1210 1.7729349e+34 2.9541509e+10 2.4472814e+28
1211 1.7990513e+34 2.9977078e+10 2.4941242e+28
1212 1.8255524e+34 3.0419071e+10 2.5418702e+28
1213 1.8524439e+34 3.0867583e+10 2.5905370e+28
1214 1.8797315e+34 3.1322709e+10 2.6401423e+28
1215 1.9074211e+34 3.1784548e+10 2.6907045e+28
1216 1.9355185e+34 3.2253199e+10 2.7422419e+28
1217 1.9640299e+34 3.2728762e+10 2.7947735e+28
1218 1.9929612e+34 3.3211339e+10 2.8483185e+28
1219 2.0223187e+34 3.3701033e+10 2.9028966e+28
1220 2.0521087e+34 3.4197950e+10 2.9585278e+28
1221 2.0823375e+34 3.4702195e+10 3.0152325e+28
1222 2.1130116e+34 3.5213879e+10 3.0730314e+28
1223 2.1441375e+34 3.5733109e+10 3.1319457e+28
1224 2.1757219e+34 3.6259997e+10 3.1919970e+28
1225 2.2077716e+34 3.6794657e+10 3.2532074e+28
1226 2.2402934e+34 3.7337202e+10 3.3155992e+28
1227 2.2732943e+34 3.7887750e+10 3.3791954e+28
1228 2.3067813e+34 3.8446419e+10 3.4440191e+28
1229 2.3407615e+34 3.9013327e+10 3.5100942e+28
1230 2.3752424e+34 3.9588598e+10 3.5774449e+28
1231 2.4102311e+34 4.0172354e+10 3.6460958e+28
1232 2.4457353e+34 4.0764720e+10 3.7160721e+28
1233 2.4817624e+34 4.1365824e+10 3.7873993e+28
1234 2.5183203e+34 4.1975794e+10 3.8601037e+28
1235 2.5554166e+34 4.2594761e+10 3.9342117e+28
1236 2.5930595e+34 4.3222858e+10 4.0097506e+28
1237 2.6312568e+34 4.3860220e+10 4.0867479e+28
1238 2.6700168e+34 4.4506984e+10 4.1652318e+28
1239 2.7093477e+34 4.5163288e+10 4.2452310e+28
1240 2.7492580e+34 4.5829273e+10 4.3267748e+28
1241 2.7897563e+34 4.6505081e+10 4.4098929e+28
1242 2.8308510e+34 4.7190859e+10 4.4946157e+28
1243 2.8725512e+34 4.7886752e+10 4.5809742e+28
1244 2.9148656e+34 4.8592911e+10 4.6689998e+28
1245 2.9578033e+34 4.9309486e+10 4.7587248e+28
1246 3.0013735e+34 5.0036632e+10 4.8501818e+28
1247 3.0455856e+34 5.0774504e+10 4.9434042e+28
1248 3.0904489e+34 5.1523261e+10 5.0384259e+28
1249 3.1359730e+34 5.2283063e+10 5.1352817e+28
1250 3.1821678e+34 5.3054074e+10 5.2340067e+28
1251 3.2290430e+34 5.3836458e+10 5.3346370e+28
1252 3.2766088e+34 5.4630384e+10 5.4372091e+28
1253 3.3248752e+34 5.5436022e+10 5.5417603e+28
1254 3.3738526e+34 5.6253545e+10 5.6483286e+28
1255 3.4235515e+34 5.7083128e+10 5.7569528e+28
1256 3.4739824e+34 5.7924949e+10 5.8676723e+28
1257 3.5251563e+34 5.8779190e+10 5.9805272e+28
1258 3.5770840e+34 5.9646032e+10 6.0955585e+28
1259 3.6297766e+34 6.0525662e+10 6.2128079e+28
1260 3.6832453e+34 6.1418270e+10 6.3323178e+28
1261 3.7375018e+34 6.2324046e+10 6.4541315e+28
1262 3.7925574e+34 6.3243184e+10 6.5782930e+28
1263 3.8484240e+34 6.4175883e+10 6.7048471e+28
1264 3.9051136e+34 6.5122341e+10 6.8338397e+28
1265 3.9626383e+34 6.6082763e+10 6.9653171e+28
1266 4.0210104e+34 6.7057355e+10 7.0993268e+28
1267 4.0802423e+34 6.8046324e+10 7.2359171e+28
1268 4.1403467e+34 6.9049885e+10 7.3751370e+28
1269 4.2013365e+34 7.0068252e+10 7.5170367e+28
1270 4.2632247e+34 7.1101643e+10 7.6616671e+28
1271 4.3260245e+34 7.2150280e+10 7.8090800e+28
1272 4.3897495e+34 7.3214389e+10 7.9593283e+28
1273 4.4544131e+34 7.4294198e+10 8.1124658e+28
1274 4.5200293e+34 7.5389939e+10 8.2685471e+28
1275 4.5866120e+34 7.6501846e+10 8.4276282e+28
1276 4.6541756e+34 7.7630159e+10 8.5897656e+28
1277 4.7227344e+34 7.8775119e+10 8.7550171e+28
1278 4.7923031e+34 7.9936972e+10 8.9234416e+28
1279 4.8628966e+34 8.1115968e+10 9.0950989e+28
1280 4.9345300e+34 8.2312360e+10 9.2700499e+28
1281 5.0072186e+34 8.3526405e+10 9.4483565e+28
1282 5.0809779e+34 8.4758362e+10 9.6300819e+28
1283 5.1558238e+34 8.6008497e+10 9.8152902e+28
1284 5.2317721e+34 8.7277078e+10 1.0004047e+29
1285 5.3088393e+34 8.8564377e+10 1.0196418e+29
1286 5.3870417e+34 8.9870671e+10 1.0392472e+29
1287 5.4663960e+34 9.1196239e+10 1.0592276e+29
1288 5.5469193e+34 9.2541367e+10 1.0795902e+29
1289 5.6286288e+34 9.3906344e+10 1.1003420e+29
1290 5.7115419e+34 9.5291461e+10 1.1214903e+29
1291 5.7956763e+34 9.6697017e+10 1.1430425e+29
1292 5.8810501e+34 9.8123314e+10 1.1650059e+29
1293 5.9676815e+34 9.9570657e+10 1.1873883e+29
1294 6.0555890e+34 1.0103936e+11 1.2101974e+29
1295 6.1447915e+34 1.0252973e+11 1.2334411e+29
1296 6.2353080e+34 1.0404210e+11 1.2571273e+29
1297 6.3271578e+34 1.0557678e+11 1.2812643e+29
1298 6.4203606e+34 1.0713411e+11 1.3058602e+29
1299 6.5149364e+34 1.0871442e+11 1.3309236e+29
1300 6.6109053e+34 1.1031805e+11 1.3564629e+29
1301 6.7082879e+34 1.1194534e+11 1.3824869e+29
1302 6.8071050e+34 1.1359665e+11 1.4090043e+29
1303 6.9073778e+34 1.1527233e+11 1.4360242e+29
1304 7.0091276e+34 1.1697274e+11 1.4635556e+29
1305 7.1123762e+34 1.1869824e+11 1.4916078e+29
1306 7.2171458e+34 1.2044920e+11 1.5201903e+29
1307 7.3234587e+34 1.2222601e+11 1.5493125e+29
1308 7.4313376e+34 1.2402903e+11 1.5789842e+29
1309 7.5408057e+34 1.2585867e+11 1.6092152e+29
1310 7.6518863e+34 1.2771530e+11 1.6400156e+29
1311 7.7646032e+34 1.2959934e+11 1.6713953e+29
1312 7.8789805e+34 1.3151118e+11 1.7033649e+29
1313 7.9950426e+34 1.3345124e+11 1.7359346e+29
1314 8.1128143e+34 1.3541993e+11 1.7691152e+29
1315 8.2323210e+34 1.3741767e+11 1.8029173e+29
1316 8.3535880e+34 1.3944490e+11 1.8373520e+29
1317 8.4766414e+34 1.4150205e+11 1.8724301e+29
1318 8.6015074e+34 1.4358956e+11 1.9081631e+29
1319 8.7282127e+34 1.4570787e+11 1.9445623e+29
1320 8.8567846e+34 1.4785745e+11 1.9816391e+29
1321 8.9872503e+34 1.5003876e+11 2.0194053e+29
1322 9.1196379e+34 1.5225226e+11 2.0578728e+29
1323 9.2539756e+34 1.5449844e+11 2.0970535e+29
1324 9.3902923e+34 1.5677776e+11 2.1369596e+29
1325 9.5286169e+34 1.5909073e+11 2.1776034e+29
1326 9.6689792e+34 1.6143783e+11 2.2189974e+29
1327 9.8114090e+34 1.6381958e+11 2.2611542e+29
1328 9.9559370e+34 1.6623648e+11 2.3040865e+29
1329 1.0102594e+35 1.6868906e+11 2.3478073e+29
1330 1.0251411e+35 1.7117783e+11 2.3923297e+29
1331 1.0402421e+35 1.7370334e+11 2.4376668e+29
1332 1.0555655e+35 1.7626613e+11 2.4838320e+29
1333 1.0711146e+35 1.7886674e+11 2.5308388e+29
1334 1.0868927e+35 1.8150575e+11 2.5787008e+29
1335 1.1029033e+35 1.8418370e+11 2.6274319e+29
1336 1.1191497e+35 1.8690118e+11 2.6770459e+29
1337 1.1356355e+35 1.8965878e+11 2.7275568e+29
1338 1.1523641e+35 1.9245708e+11 2.7789789e+29
1339 1.1693391e+35 1.9529669e+11 2.8313263e+29
1340 1.1865642e+35 1.9817821e+11 2.8846136e+29
1341 1.2040430e+35 2.0110226e+11 2.9388551e+29
1342 1.2217792e+35 2.0406948e+11 2.9940656e+29
1343 1.2397768e+35 2.0708050e+11 3.0502598e+29
1344 1.2580394e+35 2.1013597e+11 3.1074524e+29
1345 1.2765711e+35 2.1323654e+11 3.1656584e+29
1346 1.2953758e+35 2.1638288e+11 3.2248927e+29
1347 1.3144574e+35 2.1957566e+11 3.2851705e+29
1348 1.3338202e+35 2.2281558e+11 3.3465068e+29
1349 1.3534681e+35 2.2610332e+11 3.4089167e+29
1350 1.3734055e+35 2.2943959e+11 3.4724157e+29
1351 1.3936366e+35 2.3282512e+11 3.5370188e+29
1352 1.4141657e+35 2.3626063e+11 3.6027414e+29
1353 1.4349972e+35 2.3974685e+11 3.6695988e+29
1354 1.4561356e+35 2.4328453e+11 3.7376063e+29
1355 1.4775854e+35 2.4687444e+11 3.8067792e+29
1356 1.4993511e+35 2.5051735e+11 3.8771327e+29
1357 1.5214374e+35 2.5421403e+11 3.9486821e+29
1358 1.5438491e+35 2.5796529e+11 4.0214426e+29
1359 1.5665909e+35 2.6177192e+11 4.0954293e+29
1360 1.5896678e+35 2.6563475e+11 4.1706573e+29
1361 1.6130845e+35 2.6955461e+11 4.2471413e+29
1362 1.6368462e+35 2.7353234e+11 4.3248964e+29
1363 1.6609580e+35 2.7756878e+11 4.4039370e+29
1364 1.6854249e+35 2.8166482e+11 4.4842777e+29
1365 1.7102522e+35 2.8582133e+11 4.5659329e+29
1366 1.7354452e+35 2.9003920e+11 4.6489166e+29
1367 1.7610094e+35 2.9431934e+11 4.7332426e+29
1368 1.7869501e+35 2.9866267e+11 4.8189247e+29
1369 1.8132730e+35 3.0307012e+11 4.9059762e+29
1370 1.8399836e+35 3.0754264e+11 4.9944100e+29
1371 1.8670876e+35 3.1208118e+11 5.0842389e+29
1372 1.8945909e+35 3.1668673e+11 5.1754752e+29
1373 1.9224994e+35 3.2136028e+11 5.2681307e+29
1374 1.9508190e+35 3.2610282e+11 5.3622170e+29
1375 1.9795557e+35 3.3091538e+11 5.4577451e+29
1376 2.0087157e+35 3.3579898e+11 5.5547254e+29
1377 2.0383053e+35 3.4075469e+11 5.6531679e+29
1378 2.0683308e+35 3.4578356e+11 5.7530820e+29
1379 2.0987986e+35 3.5088667e+11 5.8544763e+29
1380 2.1297151e+35 3.5606512e+11 5.9573591e+29
1381 2.1610871e+35 3.6132002e+11 6.0617375e+29
1382 2.1929212e+35 3.6665250e+11 6.1676183e+29
1383 2.2252243e+35 3.7206371e+11 6.2750073e+29
1384 2.2580031e+35 3.7755480e+11 6.3839092e+29
1385 2.2912649e+35 3.8312697e+11 6.4943283e+29
1386 2.3250166e+35 3.8878139e+11 6.6062675e+29
1387 2.3592655e+35 3.9451930e+11 6.7197289e+29
1388 2.3940189e+35 4.0034191e+11 6.8347135e+29
1389 2.4292842e+35 4.0625048e+11 6.9512211e+29
1390 2.4650690e+35 4.1224629e+11 7.0692504e+29
1391 2.5013810e+35 4.1833061e+11 7.1887988e+29
1392 2.5382278e+35 4.2450475e+11 7.3098623e+29
1393 2.5756174e+35 4.3077004e+11 7.4324357e+29
1394 2.6135578e+35 4.3712782e+11 7.5565122e+29
1395 2.6520571e+35 4.4357946e+11 7.6820835e+29
1396 2.6911235e+35 4.5012635e+11 7.8091398e+29
1397 2.7307654e+35 4.5676989e+11 7.9376696e+29
1398 2.7709912e+35 4.6351150e+11 8.0676595e+29
1399 2.8118095e+35 4.7035263e+11 8.1990945e+29
1400 2.8532292e+35 4.7729475e+11 8.3319576e+29
1401 2.8952590e+35 4.8433936e+11 8.4662300e+29
1402 2.9379079e+35 4.9148795e+11 8.6018906e+29
1403 2.9811850e+35 4.9874208e+11 8.7389164e+29
1404 3.0250997e+35 5.0610328e+11 8.8772821e+29
1405 3.0696612e+35 5.1357315e+11 9.0169601e+29
1406 3.1148791e+35 5.2115329e+11 9.1579205e+29
1407 3.1607632e+35 5.2884531e+11 9.3001310e+29
1408 3.2073231e+35 5.3665088e+11 9.4435567e+29
1409 3.2545689e+35 5.4457167e+11 9.5881601e+29
1410 3.3025107e+35 5.5260937e+11 9.7339011e+29
1411 3.3511586e+35 5.6076571e+11 9.8807369e+29
1412 3.4005232e+35 5.6904244e+11 1.0028622e+30
1413 3.4506150e+35 5.7744134e+11 1.0177507e+30
1414 3.5014446e+35 5.8596420e+11 1.0327341e+30
1415 3.5530230e+35 5.9461285e+11 1.0478070e+30
1416 3.6053611e+35 6.0338915e+11 1.0629636e+30
1417 3.6584703e+35 6.1229498e+11 1.0781978e+30
1418 3.7123617e+35 6.2133225e+11 1.0935032e+30
1419 3.7670470e+35 6.3050290e+11 1.1088732e+30
1420 3.8225379e+35 6.3980888e+11 1.1243006e+30
1421 3.8788462e+35 6.4925221e+11 1.1397782e+30
1422 3.9359839e+35 6.5883489e+11 1.1552982e+30
1423 3.9939633e+35 6.6855898e+11 1.1708526e+30
1424 4.0527968e+35 6.7842658e+11 1.1864331e+30
1425 4.1124969e+35 6.8843978e+11 1.2020310e+30
1426 4.1730765e+35 6.9860074e+11 1.2176373e+30
1427 4.2345484e+35 7.0891163e+11 1.2332427e+30
1428 4.2969258e+35 7.1937467e+11 1.2488375e+30
1429 4.3602221e+35 7.2999208e+11 1.2644117e+30
1430 4.4244508e+35 7.4076616e+11 1.2799553e+30
1431 4.4896256e+35 7.5169919e+11 1.2954575e+30
1432 4.5557605e+35 7.6279353e+11 1.3109076e+30
1433 4.6228696e+35 7.7405155e+11 1.3262946e+30
1434 4.6909673e+35 7.8547566e+11 1.3416071e+30
1435 4.7600680e+35 7.9706830e+11 1.3568336e+30
1436 4.8301867e+35 8.0883196e+11 1.3719624e+30
1437 4.9013382e+35 8.2076914e+11 1.3869815e+30
1438 4.9735379e+35 8.3288242e+11 1.4018789e+30
1439 5.0468011e+35 8.4517438e+11 1.4166425e+30
1440 5.1211435e+35 8.5764764e+11 1.4312599e+30
1441 5.1965810e+35 8.7030488e+11 1.4457189e+30
1442 5.2731298e+35 8.8314881e+11 1.4600072e+30
1443 5.3508061e+35 8.9618217e+11 1.4741126e+30
1444 5.4296267e+35 9.0940774e+11 1.4880227e+30
1445 5.5096084e+35 9.2282836e+11 1.5017257e+30
1446 5.5907682e+35 9.3644690e+11 1.5152096e+30
1447 5.6731236e+35 9.5026627e+11 1.5284629e+30
1448 5.7566921e+35 9.6428942e+11 1.5414743e+30
1449 5.8414916e+35 9.7851935e+11 1.5542328e+30
1450 5.9275403e+35 9.9295911e+11 1.5667281e+30
1451 6.0148566e+35 1.0076118e+12 1.5789501e+30
1452 6.1034590e+35 1.0224805e+12 1.5908896e+30
1453 6.1933666e+35 1.0375684e+12 1.6025379e+30
1454 6.2845986e+35 1.0528788e+12 1.6138871e+30
1455 6.3771745e+35 1.0684148e+12 1.6249300e+30
1456 6.4711141e+35 1.0841799e+12 1.6356608e+30
1457 6.5664375e+35 1.1001775e+12 1.6460741e+30
1458 6.6631651e+35 1.1164108e+12 1.6561662e+30
1459 6.7613175e+35 1.1328834e+12 1.6659342e+30
1460 6.8609158e+35 1.1495989e+12 1.6753768e+30
1461 6.9619812e+35 1.1665607e+12 1.6844939e+30
1462 7.0645354e+35 1.1837725e+12 1.6932872e+30
1463 7.1686002e+35 1.2012380e+12 1.7017596e+30
1464 7.2741980e+35 1.2189609e+12 1.7099162e+30
1465 7.3813513e+35 1.2369450e+12 1.7177637e+30
1466 7.4900830e+35 1.2551942e+12 1.7253105e+30
1467 7.6004165e+35 1.2737123e+12 1.7325674e+30
1468 7.7123752e+35 1.2925033e+12 1.7395471e+30
1469 7.8259831e+35 1.3115712e+12 1.7462645e+30
1470 7.9412645e+35 1.3309201e+12 1.7527367e+30
1471 8.0582441e+35 1.3505541e+12 1.7589834e+30
1472 8.1769469e+35 1.3704775e+12 1.7650266e+30
1473 8.2973982e+35 1.3906944e+12 1.7708905e+30
1474 8.4196239e+35 1.4112093e+12 1.7766023e+30
1475 8.5436500e+35 1.4320264e+12 1.7821914e+30
1476 8.6695031e+35 1.4531503e+12 1.7876902e+30
1477 8.7972101e+35 1.4745854e+12 1.7931332e+30
1478 8.9267982e+35 1.4963363e+12 1.7985581e+30
1479 9.0582953e+35 1.5184078e+12 1.8040050e+30
1480 9.1917295e+35 1.5408045e+12 1.8095164e+30
1481 9.3271292e+35 1.5635311e+12 1.8151379e+30
1482 9.4645234e+35 1.5865927e+12 1.8209173e+30
1483 9.6039415e+35 1.6099940e+12 1.8269049e+30
1484 9.7454133e+35 1.6337402e+12 1.8331535e+30
1485 9.8889691e+35 1.6578363e+12 1.8397183e+30
1486 1.0034640e+36 1.6822874e+12 1.8466567e+30
1487 1.0182456e+36 1.7070989e+12 1.8540280e+30
1488 1.0332449e+36 1.7322759e+12 1.8618937e+30
1489 1.0484653e+36 1.7578239e+12 1.8703169e+30
1490 1.0639098e+36 1.7837485e+12 1.8793624e+30
1491 1.0795818e+36 1.8100550e+12 1.8890965e+30
1492 1.0954847e+36 1.8367493e+12 1.8995867e+30
1493 1.1116219e+36 1.8638369e+12 1.9109015e+30
1494 1.1279967e+36 1.8913238e+12 1.9231101e+30
1495 1.1446128e+36 1.9192157e+12 1.9362824e+30
1496 1.1614736e+36 1.9475188e+12 1.9504886e+30
1497 1.1785828e+36 1.9762390e+12 1.9657988e+30
1498 1.1959441e+36 2.0053825e+12 1.9822831e+30
1499 1.2135610e+36 2.0349557e+12 2.0000109e+30
1500 1.2314375e+36 2.0649647e+12 2.0190511e+30
1501 1.2495773e+36 2.0954161e+12 2.0394713e+30
1502 1.2679843e+36 2.1263165e+12 2.0613379e+30
1503 1.2866625e+36 2.1576724e+12 2.0847158e+30
1504 1.3056158e+36 2.1894906e+12 2.1096681e+30
1505 1.3248483e+36 2.2217779e+12 2.1362556e+30
1506 1.3443641e+36 2.2545412e+12 2.1645370e+30
1507 1.3641674e+36 2.2877877e+12 2.1945681e+30
1508 1.3842624e+36 2.3215244e+12 2.2264023e+30
1509 1.4046535e+36 2.3557586e+12 2.2600896e+30
1510 1.4253448e+36 2.3904977e+12 2.2956771e+30
1511 1.4463410e+36 2.4257491e+12 2.3332082e+30
1512 1.4676465e+36 2.4615204e+12 2.3727229e+30
1513 1.4892658e+36 2.4978193e+12 2.4142576e+30
1514 1.5112036e+36 2.5346536e+12 2.4578446e+30
1515 1.5334645e+36 2.5720312e+12 2.5035125e+30
1516 1.5560534e+36 2.6099602e+12 2.5512860e+30
1517 1.5789750e+36 2.6484487e+12 2.6011854e+30
1518 1.6022342e+36 2.6875050e+12 2.6532273e+30
1519 1.6258361e+36 2.7271375e+12 2.7074242e+30
1520 1.6497856e+36 2.7673547e+12 2.7637844e+30
1521 1.6740880e+36 2.8081652e+12 2.8223122e+30
1522 1.6987483e+36 2.8495780e+12 2.8830083e+30
1523 1.7237719e+36 2.8916017e+12 2.9458693e+30
1524 1.7491641e+36 2.9342456e+12 3.0108881e+30
1525 1.7749303e+36 2.9775187e+12 3.0780542e+30
1526 1.8010761e+36 3.0214303e+12 3.1473538e+30
1527 1.8276070e+36 3.0659899e+12 3.2187694e+30
1528 1.8545288e+36 3.1112072e+12 3.2922811e+30
1529 1.8818471e+36 3.1570917e+12 3.3678658e+30
1530 1.9095678e+36 3.2036534e+12 3.4454980e+30
1531 1.9376969e+36 3.2509022e+12 3.5251496e+30
1532 1.9662404e+36 3.2988484e+12 3.6067908e+30
1533 1.9952043e+36 3.3475022e+12 3.6903898e+30
1534 2.0245948e+36 3.3968741e+12 3.7759131e+30
1535 2.0544183e+36 3.4469747e+12 3.8633262e+30
1536 2.0846811e+36 3.4978148e+12 3.9525935e+30
1537 2.1153897e+36 3.5494052e+12 4.0436785e+30
1538 2.1465507e+36 3.6017571e+12 4.1365445e+30
1539 2.1781707e+36 3.6548817e+12 4.2311545e+30
1540 2.2102564e+36 3.7087905e+12 4.3274717e+30
1541 2.2428149e+36 3.7634949e+12 4.4254597e+30
1542 2.2758529e+36 3.8190068e+12 4.5250828e+30
1543 2.3093775e+36 3.8753380e+12 4.6263059e+30
1544 2.3433961e+36 3.9325008e+12 4.7290955e+30
1545 2.3779157e+36 3.9905072e+12 4.8334192e+30
1546 2.4129438e+36 4.0493699e+12 4.9392463e+30
1547 2.4484879e+36 4.1091014e+12 5.0465479e+30
1548 2.4845556e+36 4.1697145e+12 5.1552973e+30
1549 2.5211546e+36 4.2312223e+12 5.2654698e+30
1550 2.5582927e+36 4.2936379e+12 5.3770431e+30
1551 2.5959779e+36 4.3569748e+12 5.4899977e+30
1552 2.6342182e+36 4.4212466e+12 5.6043164e+30
1553 2.6730219e+36 4.4864670e+12 5.7199851e+30
1554 2.7123971e+36 4.5526501e+12 5.8369924e+30
1555 2.7523523e+36 4.6198100e+12 5.9553299e+30
1556 2.7928961e+36 4.6879611e+12 6.0749922e+30
1557 2.8340371e+36 4.7571182e+12 6.1959773e+30
1558 2.8757842e+36 4.8272959e+12 6.3182858e+30
1559 2.9181462e+36 4.8985095e+12 6.4419219e+30
1560 2.9611323e+36 4.9707741e+12 6.5668927e+30
1561 3.0047515e+36 5.0441052e+12 6.6932085e+30
1562 3.0490133e+36 5.1185186e+12 6.8208826e+30
1563 3.0939271e+36 5.1940303e+12 6.9499316e+30
1564 3.1395025e+36 5.2706565e+12 7.0803746e+30
1565 3.1857493e+36 5.3484136e+12 7.2122342e+30
1566 3.2326773e+36 5.4273182e+12 7.3455355e+30
1567 3.2802966e+36 5.5073873e+12 7.4803063e+30
1568 3.3286173e+36 5.5886382e+12 7.6165773e+30
1569 3.3776498e+36 5.6710881e+12 7.7543814e+30
1570 3.4274047e+36 5.7547549e+12 7.8937543e+30
1571 3.4778924e+36 5.8396564e+12 8.0347337e+30
1572 3.5291238e+36 5.9258109e+12 8.1773597e+30
1573 3.5811099e+36 6.0132369e+12 8.3216742e+30
1574 3.6338618e+36 6.1019531e+12 8.4677213e+30
1575 3.6873908e+36 6.1919785e+12 8.6155466e+30
1576 3.7417083e+36 6.2833325e+12 8.7651977e+30
1577 3.7968259e+36 6.3760346e+12 8.9167234e+30
1578 3.8527554e+36 6.4701048e+12 9.0701742e+30
1579 3.9095088e+36 6.5655633e+12 9.2256018e+30
1580 3.9670982e+36 6.6624305e+12 9.3830591e+30
1581 4.0255360e+36 6.7607272e+12 9.5425999e+30
1582 4.0848345e+36 6.8604744e+12 9.7042795e+30
1583 4.1450066e+36 6.9616937e+12 9.8681535e+30
1584 4.2060650e+36 7.0644068e+12 1.0034279e+31
1585 4.2680229e+36 7.1686356e+12 1.0202713e+31
1586 4.3308934e+36 7.2744025e+12 1.0373514e+31
1587 4.3946901e+36 7.3817302e+12 1.0546741e+31
1588 4.4594265e+36 7.4906418e+12 1.0722454e+31
1589 4.5251165e+36 7.6011607e+12 1.0900712e+31
1590 4.5917742e+36 7.7133105e+12 1.1081577e+31
1591 4.6594138e+36 7.8271153e+12 1.1265111e+31
1592 4.7280498e+36 7.9425996e+12 1.1451375e+31
1593 4.7976968e+36 8.0597880e+12 1.1640433e+31
1594 4.8683697e+36 8.1787059e+12 1.1832348e+31
1595 4.9400838e+36 8.2993787e+12 1.2027186e+31
1596 5.0128542e+36 8.4218322e+12 1.2225012e+31
1597 5.0866965e+36 8.5460929e+12 1.2425894e+31
1598 5.1616266e+36 8.6721873e+12 1.2629900e+31
1599 5.2376605e+36 8.8001425e+12 1.2837100e+31
1600 5.3148143e+36 8.9299860e+12 1.3047565e+31
1601 5.3931047e+36 9.0617457e+12 1.3261370e+31
1602 5.4725484e+36 9.1954497e+12 1.3478590e+31
1603 5.5531623e+36 9.3311269e+12 1.3699303e+31
1604 5.6349638e+36 9.4688064e+12 1.3923591e+31
1605 5.7179702e+36 9.6085177e+12 1.4151538e+31
1606 5.8021993e+36 9.7502907e+12 1.4383232e+31
1607 5.8876692e+36 9.8941560e+12 1.4618764e+31
1608 5.9743981e+36 1.0040144e+13 1.4858230e+31
1609 6.0624045e+36 1.0188287e+13 1.5101731e+31
1610 6.1517074e+36 1.0338616e+13 1.5349374e+31
1611 6.2423257e+36 1.0491164e+13 1.5601270e+31
1612 6.3342789e+36 1.0645963e+13 1.5857540e+31
1613 6.4275867e+36 1.0803046e+13 1.6118308e+31
1614 6.5222689e+36 1.0962448e+13 1.6383710e+31
1615 6.6183458e+36 1.1124202e+13 1.6653889e+31
1616 6.7158380e+36 1.1288344e+13 1.6928998e+31
1617 6.8147664e+36 1.1454908e+13 1.7209199e+31
1618 6.9151520e+36 1.1623930e+13 1.7494670e+31
1619 7.0170163e+36 1.1795446e+13 1.7785598e+31
1620 7.1203812e+36 1.1969494e+13 1.8082185e+31
1621 7.2252686e+36 1.2146111e+13 1.8384650e+31
1622 7.3317012e+36 1.2325334e+13 1.8693226e+31
1623 7.4397016e+36 1.2507203e+13 1.9008165e+31
1624 7.5492928e+36 1.2691755e+13 1.9329740e+31
1625 7.6604984e+36 1.2879032e+13 1.9658244e+31
1626 7.7733422e+36 1.3069073e+13 1.9993992e+31
1627 7.8878482e+36 1.3261919e+13 2.0337325e+31
1628 8.0040409e+36 1.3457611e+13 2.0688609e+31
1629 8.1219452e+36 1.3656192e+13 2.1048241e+31
1630 8.2415864e+36 1.3857703e+13 2.1416644e+31
1631 8.3629899e+36 1.4062190e+13 2.1794277e+31
1632 8.4861817e+36 1.4269695e+13 2.2181630e+31
1633 8.6111883e+36 1.4480263e+13 2.2579230e+31
1634 8.7380363e+36 1.4693939e+13 2.2987643e+31
1635 8.8667528e+36 1.4910770e+13 2.3407473e+31
1636 8.9973654e+36 1.5130801e+13 2.3839363e+31
1637 9.1299020e+36 1.5354082e+13 2.4284003e+31
1638 9.2643909e+36 1.5580658e+13 2.4742121e+31
1639 9.4008610e+36 1.5810580e+13 2.5214492e+31
1640 9.5393413e+36 1.6043897e+13 2.5701935e+31
1641 9.6798615e+36 1.6280658e+13 2.6205312e+31
1642 9.8224517e+36 1.6520916e+13 2.6725528e+31
1643 9.9671423e+36 1.6764721e+13 2.7263531e+31
1644 1.0113964e+37 1.7012127e+13 2.7820306e+31
1645 1.0262949e+37 1.7263186e+13 2.8396877e+31
1646 1.0414128e+37 1.7517954e+13 2.8994297e+31
1647 1.0567535e+37 1.7776484e+13 2.9613647e+31
1648 1.0723201e+37 1.8038833e+13 3.0256026e+31
1649 1.0881160e+37 1.8305057e+13 3.0922549e+31
1650 1.1041446e+37 1.8575214e+13 3.1614329e+31
1651 1.1204093e+37 1.8849362e+13 3.2332477e+31
1652 1.1369136e+37 1.9127560e+13 3.3078083e+31
1653 1.1536610e+37 1.9409869e+13 3.3852204e+31
1654 1.1706552e+37 1.9696350e+13 3.4655854e+31
1655 1.1878996e+37 1.9987063e+13 3.5489986e+31
1656 1.2053981e+37 2.0282074e+13 3.6355475e+31
1657 1.2231543e+37 2.0581444e+13 3.7253107e+31
1658 1.2411721e+37 2.0885239e+13 3.8183557e+31
1659 1.2594553e+37 2.1193525e+13 3.9147375e+31
1660 1.2780079e+37 2.1506368e+13 4.0144972e+31
1661 1.2968337e+37 2.1823836e+13 4.1176603e+31
1662 1.3159368e+37 2.2145998e+13 4.2242357e+31
1663 1.3353214e+37 2.2472923e+13 4.3342143e+31
1664 1.3549915e+37 2.2804682e+13 4.4475685e+31
1665 1.3749513e+37 2.3141347e+13 4.5642518e+31
1666 1.3952052e+37 2.3482991e+13 4.6841982e+31
1667 1.4157574e+37 2.3829687e+13 4.8073230e+31
1668 1.4366123e+37 2.4181511e+13 4.9335233e+31
1669 1.4577745e+37 2.4538538e+13 5.0626789e+31
1670 1.4792484e+37 2.4900846e+13 5.1946543e+31
1671 1.5010386e+37 2.5268513e+13 5.3293003e+31
1672 1.5231498e+37 2.5641618e+13 5.4664563e+31
1673 1.5455867e+37 2.6020242e+13 5.6059533e+31
1674 1.5683541e+37 2.6404466e+13 5.7476166e+31
1675 1.5914569e+37 2.6794373e+13 5.8912689e+31
1676 1.6149000e+37 2.7190048e+13 6.0367336e+31
1677 1.6386885e+37 2.7591575e+13 6.1838382e+31
1678 1.6628274e+37 2.7999041e+13 6.3324174e+31
1679 1.6873218e+37 2.8412534e+13 6.4823162e+31
1680 1.7121771e+37 2.8832143e+13 6.6333926e+31
1681 1.7373985e+37 2.9257957e+13 6.7855205e+31
1682 1.7629914e+37 2.9690069e+13 6.9385916e+31
1683 1.7889613e+37 3.0128571e+13 7.0925175e+31
1684 1.8153138e+37 3.0573558e+13 7.2472306e+31
1685 1.8420544e+37 3.1025126e+13 7.4026857e+31
1686 1.8691890e+37 3.1483370e+13 7.5588599e+31
1687 1.8967233e+37 3.1948391e+13 7.7157530e+31
1688 1.9246632e+37 3.2420288e+13 7.8733869e+31
1689 1.9530146e+37 3.2899161e+13 8.0318052e+31
1690 1.9817837e+37 3.3385115e+13 8.1910721e+31
1691 2.0109765e+37 3.3878253e+13 8.3512708e+31
1692 2.0405994e+37 3.4378682e+13 8.5125026e+31
1693 2.0706587e+37 3.4886509e+13 8.6748846e+31
1694 2.1011607e+37 3.5401844e+13 8.8385485e+31
1695 2.1321121e+37 3.5924796e+13 9.0036383e+31
1696 2.1635194e+37 3.6455479e+13 9.1703091e+31
1697 2.1953893e+37 3.6994007e+13 9.3387245e+31
1698 2.2277287e+37 3.7540496e+13 9.5090559e+31
1699 2.2605445e+37 3.8095062e+13 9.6814800e+31
1700 2.2938437e+37 3.8657827e+13 9.8561778e+31
1701 2.3276334e+37 3.9228909e+13 1.0033333e+32
1702 2.3619208e+37 3.9808434e+13 1.0213132e+32
1703 2.3967133e+37 4.0396525e+13 1.0395759e+32
1704 2.4320184e+37 4.0993309e+13 1.0581402e+32
1705 2.4678434e+37 4.1598915e+13 1.0770245e+32
1706 2.5041963e+37 4.2213473e+13 1.0962472e+32
1707 2.5410846e+37 4.2837115e+13 1.1158263e+32
1708 2.5785163e+37 4.3469977e+13 1.1357799e+32
1709 2.6164994e+37 4.4112194e+13 1.1561256e+32
1710 2.6550420e+37 4.4763904e+13 1.1768808e+32
1711 2.6941523e+37 4.5425250e+13 1.1980627e+32
1712 2.7338388e+37 4.6096372e+13 1.2196884e+32
1713 2.7741099e+37 4.6777416e+13 1.2417744e+32
1714 2.8149742e+37 4.7468530e+13 1.2643375e+32
1715 2.8564405e+37 4.8169860e+13 1.2873941e+32
1716 2.8985175e+37 4.8881561e+13 1.3109605e+32
1717 2.9412145e+37 4.9603784e+13 1.3350530e+32
1718 2.9845403e+37 5.0336685e+13 1.3596879e+32
1719 3.0285044e+37 5.1080424e+13 1.3848816e+32
1720 3.0731161e+37 5.1835160e+13 1.4106504e+32
1721 3.1183849e+37 5.2601057e+13 1.4370109e+32
1722 3.1643206e+37 5.3378279e+13 1.4639800e+32
1723 3.2109329e+37 5.4166995e+13 1.4915747e+32
1724 3.2582319e+37 5.4967375e+13 1.5198124e+32
1725 3.3062276e+37 5.5779592e+13 1.5487109e+32
1726 3.3549303e+37 5.6603821e+13 1.5782884e+32
1727 3.4043505e+37 5.7440241e+13 1.6085637e+32
1728 3.4544986e+37 5.8289032e+13 1.6395561e+32
1729 3.5053854e+37 5.9150377e+13 1.6712855e+32
1730 3.5570219e+37 6.0024464e+13 1.7037725e+32
1731 3.6094189e+37 6.0911480e+13 1.7370386e+32
1732 3.6625878e+37 6.1811617e+13 1.7711058e+32
1733 3.7165400e+37 6.2725070e+13 1.8059973e+32
1734 3.7712868e+37 6.3652037e+13 1.8417369e+32
1735 3.8268401e+37 6.4592719e+13 1.8783496e+32
1736 3.8832118e+37 6.5547317e+13 1.9158615e+32
1737 3.9404138e+37 6.6516040e+13 1.9542995e+32
1738 3.9984585e+37 6.7499096e+13 1.9936920e+32
1739 4.0573582e+37 6.8496699e+13 2.0340685e+32
1740 4.1171255e+37 6.9509064e+13 2.0754597e+32
1741 4.1777732e+37 7.0536411e+13 2.1178977e+32
1742 4.2393144e+37 7.1578961e+13 2.1614162e+32
1743 4.3017620e+37 7.2636941e+13 2.2060502e+32
1744 4.3651295e+37 7.3710580e+13 2.2518363e+32
1745 4.4294305e+37 7.4800110e+13 2.2988129e+32
1746 4.4946787e+37 7.5905767e+13 2.3470198e+32
1747 4.5608880e+37 7.7027792e+13 2.3964990e+32
1748 4.6280726e+37 7.8166426e+13 2.4472941e+32
1749 4.6962469e+37 7.9321918e+13 2.4994507e+32
1750 4.7654254e+37 8.0494518e+13 2.5530167e+32
1751 4.8356230e+37 8.1684480e+13 2.6080417e+32
1752 4.9068546e+37 8.2892062e+13 2.6645781e+32
1753 4.9791356e+37 8.4117526e+13 2.7226803e+32
1754 5.0524812e+37 8.5361139e+13 2.7824052e+32
1755 5.1269073e+37 8.6623170e+13 2.8438126e+32
1756 5.2024297e+37 8.7903894e+13 2.9069646e+32
1757 5.2790646e+37 8.9203588e+13 2.9719265e+32
1758 5.3568284e+37 9.0522536e+13 3.0387663e+32
1759 5.4357377e+37 9.1861024e+13 3.1075553e+32
1760 5.5158094e+37 9.3219342e+13 3.1783681e+32
1761 5.5970606e+37 9.4597788e+13 3.2512826e+32
1762 5.6795087e+37 9.5996660e+13 3.3263804e+32
1763 5.7631712e+37 9.7416263e+13 3.4037469e+32
1764 5.8480662e+37 9.8856907e+13 3.4834715e+32
1765 5.9342117e+37 1.0031890e+14 3.5656475e+32
1766 6.0216262e+37 1.0180258e+14 3.6503728e+32
1767 6.1103284e+37 1.0330824e+14 3.7377500e+32
1768 6.2003372e+37 1.0483623e+14 3.8278862e+32
1769 6.2916719e+37 1.0638688e+14 3.9208936e+32
1770 6.3843520e+37 1.0796053e+14 4.0168901e+32
1771 6.4783973e+37 1.0955752e+14 4.1159985e+32
1772 6.5738280e+37 1.1117820e+14 4.2183481e+32
1773 6.6706644e+37 1.1282292e+14 4.3240738e+32
1774 6.7689273e+37 1.1449204e+14 4.4333173e+32
1775 6.8686377e+37 1.1618594e+14 4.5462269e+32
1776 6.9698169e+37 1.1790497e+14 4.6629581e+32
1777 7.0724864e+37 1.1964952e+14 4.7836738e+32
1778 7.1766684e+37 1.2141998e+14 4.9085446e+32
1779 7.2823850e+37 1.2321671e+14 5.0377496e+32
1780 7.3896589e+37 1.2504014e+14 5.1714764e+32
1781 7.4985131e+37 1.2689064e+14 5.3099218e+32
1782 7.6089707e+37 1.2876864e+14 5.4532919e+32
1783 7.7210554e+37 1.3067453e+14 5.6018031e+32
1784 7.8347911e+37 1.3260875e+14 5.7556822e+32
1785 7.9502023e+37 1.3457172e+14 5.9151672e+32
1786 8.0673136e+37 1.3656388e+14 6.0805074e+32
1787 8.1861499e+37 1.3858565e+14 6.2519648e+32
1788 8.3067369e+37 1.4063749e+14 6.4298139e+32
1789 8.4291001e+37 1.4271985e+14 6.6143428e+32
1790 8.5532658e+37 1.4483320e+14 6.8058538e+32
1791 8.6792605e+37 1.4697799e+14 7.0046641e+32
1792 8.8071112e+37 1.4915472e+14 7.2111066e+32
1793 8.9368453e+37 1.5136385e+14 7.4255305e+32
1794 9.0684904e+37 1.5360588e+14 7.6483025e+32
1795 9.2020747e+37 1.5588131e+14 7.8798073e+32
1796 9.3376268e+37 1.5819065e+14 8.1204490e+32
1797 9.4751756e+37 1.6053440e+14 8.3706515e+32
1798 9.6147506e+37 1.6291310e+14 8.6308599e+32
1799 9.7563817e+37 1.6532727e+14 8.9015415e+32
1800 9.9000990e+37 1.6777746e+14 9.1831869e+32
1801 1.0045933e+38 1.7026421e+14 9.4763113e+32
1802 1.0193916e+38 1.7278809e+14 9.7814555e+32
1803 1.0344079e+38 1.7534965e+14 1.0099188e+33
1804 1.0496453e+38 1.7794948e+14 1.0430104e+33
1805 1.0651072e+38 1.8058815e+14 1.0774831e+33
1806 1.0807969e+38 1.8326628e+14 1.1134026e+33
1807 1.0967177e+38 1.8598445e+14 1.1508381e+33
1808 1.1128730e+38 1.8874329e+14 1.1898621e+33
1809 1.1292663e+38 1.9154343e+14 1.2305508e+33
1810 1.1459010e+38 1.9438549e+14 1.2729843e+33
1811 1.1627808e+38 1.9727013e+14 1.3172467e+33
1812 1.1799093e+38 2.0019800e+14 1.3634263e+33
1813 1.1972901e+38 2.0316978e+14 1.4116159e+33
1814 1.2149269e+38 2.0618613e+14 1.4619131e+33
1815 1.2328235e+38 2.0924777e+14 1.5144202e+33
1816 1.2509837e+38 2.1235538e+14 1.5692448e+33
1817 1.2694115e+38 2.1550968e+14 1.6265001e+33
1818 1.2881106e+38 2.1871141e+14 1.6863049e+33
1819 1.3070853e+38 2.2196131e+14 1.7487838e+33
1820 1.3263394e+38 2.2526013e+14 1.8140681e+33
1821 1.3458772e+38 2.2860863e+14 1.8822956e+33
1822 1.3657028e+38 2.3200760e+14 1.9536111e+33
1823 1.3858204e+38 2.3545784e+14 2.0281668e+33
1824 1.4062344e+38 2.3896014e+14 2.1061225e+33
1825 1.4269491e+38 2.4251535e+14 2.1876463e+33
1826 1.4479689e+38 2.4612430e+14 2.2729147e+33
1827 1.4692983e+38 2.4978783e+14 2.3621134e+33
1828 1.4909420e+38 2.5350683e+14 2.4554374e+33
1829 1.5129044e+38 2.5728217e+14 2.5530915e+33
1830 1.5351904e+38 2.6111477e+14 2.6552912e+33
1831 1.5578047e+38 2.6500553e+14 2.7622630e+33
1832 1.5807521e+38 2.6895540e+14 2.8742446e+33
1833 1.6040375e+38 2.7296534e+14 2.9914862e+33
1834 1.6276660e+38 2.7703631e+14 3.1142507e+33
1835 1.6516425e+38 2.8116930e+14 3.2428141e+33
1836 1.6759722e+38 2.8536534e+14 3.3774670e+33
1837 1.7006602e+38 2.8962544e+14 3.5185143e+33
1838 1.7257120e+38 2.9395067e+14 3.6662770e+33
1839 1.7511327e+38 2.9834208e+14 3.8210921e+33
1840 1.7769280e+38 3.0280078e+14 3.9833140e+33
1841 1.8031032e+38 3.0732788e+14 4.1533152e+33
1842 1.8296640e+38 3.1192453e+14 4.3314872e+33
1843 1.8566160e+38 3.1659187e+14 4.5182415e+33
1844 1.8839651e+38 3.2133110e+14 4.7140108e+33
1845 1.9117171e+38 3.2614343e+14 4.9192496e+33
1846 1.9398778e+38 3.3103009e+14 5.1344360e+33
1847 1.9684534e+38 3.3599234e+14 5.3600724e+33
1848 1.9974499e+38 3.4103148e+14 5.5966868e+33
1849 2.0268735e+38 3.4614882e+14 5.8448344e+33
1850 2.0567306e+38 3.5134571e+14 6.1050987e+33
1851 2.0870274e+38 3.5662352e+14 6.3780930e+33
1852 2.1177706e+38 3.6198365e+14 6.6644621e+33
1853 2.1489666e+38 3.6742756e+14 6.9648837e+33
1854 2.1806222e+38 3.7295669e+14 7.2800702e+33
1855 2.2127441e+38 3.7857257e+14 7.6107706e+33
1856 2.2453391e+38 3.8427673e+14 7.9577719e+33
1857 2.2784143e+38 3.9007073e+14 8.3219015e+33
1858 2.3119767e+38 3.9595620e+14 8.7040294e+33
1859 2.3460335e+38 4.0193479e+14 9.1050697e+33
1860 2.3805920e+38 4.0800817e+14 9.5259834e+33
1861 2.4156596e+38 4.1417809e+14 9.9677808e+33
1862 2.4512437e+38 4.2044631e+14 1.0431524e+34
1863 2.4873520e+38 4.2681466e+14 1.0918328e+34
1864 2.5239922e+38 4.3328499e+14 1.1429368e+34
1865 2.5611721e+38 4.3985921e+14 1.1965875e+34
1866 2.5988997e+38 4.4653929e+14 1.2529147e+34
1867 2.6371830e+38 4.5332723e+14 1.3120545e+34
1868 2.6760303e+38 4.6022509e+14 1.3741503e+34
1869 2.7154498e+38 4.6723499e+14 1.4393524e+34
1870 2.7554501e+38 4.7435910e+14 1.5078192e+34
1871 2.7960395e+38 4.8159966e+14 1.5797169e+34
1872 2.8372268e+38 4.8895895e+14 1.6552203e+34
1873 2.8790209e+38 4.9643932e+14 1.7345131e+34
1874 2.9214306e+38 5.0404321e+14 1.8177885e+34
1875 2.9644650e+38 5.1177310e+14 1.9052492e+34
1876 3.0081334e+38 5.1963154e+14 1.9971086e+34
1877 3.0524450e+38 5.2762117e+14 2.0935909e+34
1878 3.0974093e+38 5.3574470e+14 2.1949317e+34
1879 3.1430360e+38 5.4400492e+14 2.3013784e+34
1880 3.1893348e+38 5.5240470e+14 2.4131914e+34
1881 3.2363156e+38 5.6094699e+14 2.5306440e+34
1882 3.2839885e+38 5.6963485e+14 2.6540236e+34
1883 3.3323636e+38 5.7847142e+14 2.7836322e+34
1884 3.3814514e+38 5.8745992e+14 2.9197871e+34
1885 3.4312622e+38 5.9660371e+14 3.0628218e+34
1886 3.4818067e+38 6.0590621e+14 3.2130867e+34
1887 3.5330958e+38 6.1537100e+14 3.3709499e+34
1888 3.5851404e+38 6.2500172e+14 3.5367983e+34
1889 3.6379517e+38 6.3480218e+14 3.7110386e+34
1890 3.6915409e+38 6.4477628e+14 3.8940977e+34
1891 3.7459195e+38 6.5492805e+14 4.0864244e+34
1892 3.8010992e+38 6.6526168e+14 4.2884903e+34
1893 3.8570917e+38 6.7578147e+14 4.5007908e+34
1894 3.9139089e+38 6.8649190e+14 4.7238461e+34
1895 3.9715632e+38 6.9739757e+14 4.9582030e+34
1896 4.0300667e+38 7.0850327e+14 5.2044360e+34
1897 4.0894320e+38 7.1981392e+14 5.4631482e+34
1898 4.1496718e+38 7.3133466e+14 5.7349734e+34
1899 4.2107989e+38 7.4307077e+14 6.0205775e+34
1900 4.2728265e+38 7.5502774e+14 6.3206595e+34
1901 4.3357678e+38 7.6721127e+14 6.6359539e+34
1902 4.3996363e+38 7.7962724e+14 6.9672321e+34
1903 4.4644456e+38 7.9228176e+14 7.3153041e+34
1904 4.5302095e+38 8.0518117e+14 7.6810207e+34
1905 4.5969422e+38 8.1833204e+14 8.0652753e+34
1906 4.6646579e+38 8.3174118e+14 8.4690061e+34
1907 4.7333712e+38 8.4541568e+14 8.8931981e+34
1908 4.8030966e+38 8.5936289e+14 9.3388858e+34
1909 4.8738491e+38 8.7359042e+14 9.8071551e+34
1910 4.9456438e+38 8.8810620e+14 1.0299146e+35
1911 5.0184961e+38 9.0291847e+14 1.0816056e+35
1912 5.0924215e+38 9.1803577e+14 1.1359141e+35
1913 5.1674360e+38 9.3346701e+14 1.1929721e+35
1914 5.2435554e+38 9.4922141e+14 1.2529180e+35
1915 5.3207961e+38 9.6530859e+14 1.3158970e+35
1916 5.3991746e+38 9.8173856e+14 1.3820617e+35
1917 5.4787077e+38 9.9852170e+14 1.4515722e+35
1918 5.5594124e+38 1.0156688e+15 1.5245963e+35
1919 5.6413059e+38 1.0331913e+15 1.6013104e+35
1920 5.7244057e+38 1.0511007e+15 1.6818991e+35
1921 5.8087296e+38 1.0694093e+15 1.7665567e+35
1922 5.8942957e+38 1.0881298e+15 1.8554864e+35
1923 5.9811222e+38 1.1072754e+15 1.9489018e+35
1924 6.0692277e+38 1.1268601e+15 2.0470267e+35
1925 6.1586311e+38 1.1468980e+15 2.1500958e+35
1926 6.2493514e+38 1.1674043e+15 2.2583554e+35
1927 6.3414081e+38 1.1883945e+15 2.3720637e+35
1928 6.4348209e+38 1.2098849e+15 2.4914913e+35
1929 6.5296096e+38 1.2318924e+15 2.6169219e+35
1930 6.6257947e+38 1.2544349e+15 2.7486531e+35
1931 6.7233966e+38 1.2775306e+15 2.8869964e+35
1932 6.8224363e+38 1.3011990e+15 3.0322788e+35
1933 6.9229349e+38 1.3254600e+15 3.1848425e+35
1934 7.0249139e+38 1.3503347e+15 3.3450462e+35
1935 7.1283951e+38 1.3758448e+15 3.5132658e+35
1936 7.2334006e+38 1.4020132e+15 3.6898949e+35
1937 7.3399530e+38 1.4288638e+15 3.8753457e+35
1938 7.4480749e+38 1.4564214e+15 4.0700500e+35
1939 7.5577895e+38 1.4847119e+15 4.2744598e+35
1940 7.6691203e+38 1.5137624e+15 4.4890484e+35
1941 7.7820910e+38 1.5436012e+15 4.7143110e+35
1942 7.8967259e+38 1.5742578e+15 4.9507661e+35
1943 8.0130494e+38 1.6057631e+15 5.1989560e+35
1944 8.1310864e+38 1.6381492e+15 5.4594483e+35
1945 8.2508622e+38 1.6714498e+15 5.7328365e+35
1946 8.3724024e+38 1.7057000e+15 6.0197414e+35
1947 8.4957329e+38 1.7409364e+15 6.3208120e+35
1948 8.6208801e+38 1.7771974e+15 6.6367269e+35
1949 8.7478709e+38 1.8145230e+15 6.9681951e+35
1950 8.8767322e+38 1.8529548e+15 7.3159577e+35
1951 9.0074918e+38 1.8925366e+15 7.6807889e+35
1952 9.1401776e+38 1.9333139e+15 8.0634971e+35
1953 9.2748179e+38 1.9753344e+15 8.4649266e+35
1954 9.4114415e+38 2.0186476e+15 8.8859588e+35
1955 9.5500777e+38 2.0633056e+15 9.3275133e+35
1956 9.6907561e+38 2.1093626e+15 9.7905500e+35
1957 9.8335068e+38 2.1568752e+15 1.0276070e+36
1958 9.9783602e+38 2.2059025e+15 1.0785117e+36
1959 1.0125347e+39 2.2565063e+15 1.1318778e+36
1960 1.0274500e+39 2.3087511e+15 1.1878188e+36
1961 1.0425849e+39 2.3627042e+15 1.2464529e+36
1962 1.0579428e+39 2.4184360e+15 1.3079028e+36
1963 1.0735270e+39 2.4760197e+15 1.3722969e+36
1964 1.0893407e+39 2.5355321e+15 1.4397681e+36
1965 1.1053873e+39 2.5970531e+15 1.5104552e+36
1966 1.1216703e+39 2.6606661e+15 1.5845022e+36
1967 1.1381932e+39 2.7264583e+15 1.6620588e+36
1968 1.1549595e+39 2.7945205e+15 1.7432807e+36
1969 1.1719727e+39 2.8649477e+15 1.8283292e+36
1970 1.1892366e+39 2.9378386e+15 1.9173720e+36
1971 1.2067548e+39 3.0132965e+15 2.0105829e+36
1972 1.2245310e+39 3.0914289e+15 2.1081422e+36
1973 1.2425691e+39 3.1723481e+15 2.2102365e+36
1974 1.2608728e+39 3.2561709e+15 2.3170592e+36
1975 1.2794463e+39 3.3430194e+15 2.4288102e+36
1976 1.2982933e+39 3.4330205e+15 2.5456965e+36
1977 1.3174179e+39 3.5263065e+15 2.6679317e+36
1978 1.3368243e+39 3.6230153e+15 2.7957365e+36
1979 1.3565165e+39 3.7232905e+15 2.9293387e+36
1980 1.3764988e+39 3.8272816e+15 3.0689730e+36
1981 1.3967755e+39 3.9351440e+15 3.2148812e+36
1982 1.4173508e+39 4.0470397e+15 3.3673119e+36
1983 1.4382292e+39 4.1631371e+15 3.5265211e+36
1984 1.4594152e+39 4.2836113e+15 3.6927713e+36
1985 1.4809133e+39 4.4086444e+15 3.8663319e+36
1986 1.5027280e+39 4.5384256e+15 4.0474790e+36
1987 1.5248641e+39 4.6731514e+15 4.2364949e+36
1988 1.5473263e+39 4.8130261e+15 4.4336684e+36
1989 1.5701193e+39 4.9582616e+15 4.6392940e+36
1990 1.5932481e+39 5.1090778e+15 4.8536717e+36
1991 1.6167176e+39 5.2657028e+15 5.0771066e+36
1992 1.6405328e+39 5.4283733e+15 5.3099087e+36
1993 1.6646989e+39 5.5973343e+15 5.5523917e+36
1994 1.6892209e+39 5.7728398e+15 5.8048733e+36
1995 1.7141041e+39 5.9551527e+15 6.0676734e+36
1996 1.7393539e+39 6.1445450e+15 6.3411142e+36
1997 1.7649756e+39 6.3412980e+15 6.6255189e+36
1998 1.7909748e+39 6.5457025e+15 6.9212107e+36
1999 1.8173569e+39 6.7580588e+15 7.2285117e+36
2000 1.8441277e+39 6.9786770e+15 7.5477418e+36
2001 1.8712928e+39 7.2078768e+15 7.8792171e+36
2002 1.8988580e+39 7.4459880e+15 8.2232484e+36
2003 1.9268293e+39 7.6933500e+15 8.5801397e+36
2004 1.9552127e+39 7.9503125e+15 8.9501864e+36
2005 1.9840142e+39 8.2172346e+15 9.3336731e+36
2006 2.0132399e+39 8.4944857e+15 9.7308714e+36
2007 2.0428961e+39 8.7824449e+15 1.0142038e+37
2008 2.0729892e+39 9.0815006e+15 1.0567411e+37
2009 2.1035256e+39 9.3920510e+15 1.1007209e+37
2010 2.1345118e+39 9.7145036e+15 1.1461626e+37
2011 2.1659544e+39 1.0049275e+16 1.1930830e+37
2012 2.1978602e+39 1.0396789e+16 1.2414958e+37
2013 2.2302360e+39 1.0757480e+16 1.2914114e+37
2014 2.2630887e+39 1.1131789e+16 1.3428363e+37
2015 2.2964254e+39 1.1520164e+16 1.3957728e+37
2016 2.3302531e+39 1.1923059e+16 1.4502185e+37
2017 2.3645791e+39 1.2340936e+16 1.5061661e+37
2018 2.3994108e+39 1.2774260e+16 1.5636021e+37
2019 2.4347556e+39 1.3223501e+16 1.6225073e+37
2020 2.4706210e+39 1.3689133e+16 1.6828554e+37
2021 2.5070147e+39 1.4171630e+16 1.7446130e+37
2022 2.5439445e+39 1.4671469e+16 1.8077384e+37
2023 2.5814184e+39 1.5189126e+16 1.8721813e+37
2024 2.6194442e+39 1.5725075e+16 1.9378821e+37
2025 2.6580302e+39 1.6279784e+16 2.0047711e+37
2026 2.6971846e+39 1.6853720e+16 2.0727678e+37
2027 2.7369157e+39 1.7447339e+16 2.1417800e+37
2028 2.7772321e+39 1.8061089e+16 2.2117031e+37
2029 2.8181424e+39 1.8695407e+16 2.2824193e+37
2030 2.8596554e+39 1.9350715e+16 2.3537967e+37
2031 2.9017798e+39 2.0027420e+16 2.4256887e+37
2032 2.9445248e+39 2.0725906e+16 2.4979325e+37
2033 2.9878994e+39 2.1446539e+16 2.5703489e+37
2034 3.0319129e+39 2.2189658e+16 2.6427413e+37
2035 3.0765748e+39 2.2955571e+16 2.7148945e+37
2036 3.1218946e+39 2.3744557e+16 2.7865741e+37
2037 3.1678820e+39 2.4556858e+16 2.8575256e+37
2038 3.2145468e+39 2.5392676e+16 2.9274736e+37
2039 3.2618990e+39 2.6252167e+16 2.9961213e+37
2040 3.3099487e+39 2.7135443e+16 3.0631492e+37
2041 3.3587063e+39 2.8042561e+16 3.1282150e+37
2042 3.4081820e+39 2.8973520e+16 3.1909527e+37
2043 3.4583866e+39 2.9928258e+16 3.2509722e+37
2044 3.5093307e+39 3.0906647e+16 3.3078590e+37
2045 3.5610253e+39 3.1908486e+16 3.3611738e+37
2046 3.6134813e+39 3.2933498e+16 3.4104524e+37
2047 3.6667101e+39 3.3981323e+16 3.4552057e+37
2048 3.7207229e+39 3.5051512e+16 3.4949199e+37
